Nodes: 20
Epoch: 0
Type: Training Data
0.0987166666667 correct
Epoch: 0
Type: Test Data
0.098 correct
[980, 0, 0, 0, 0, 0, 0, 0, 0, 0]
[1135, 0, 0, 0, 0, 0, 0, 0, 0, 0]
[1032, 0, 0, 0, 0, 0, 0, 0, 0, 0]
[1010, 0, 0, 0, 0, 0, 0, 0, 0, 0]
[982, 0, 0, 0, 0, 0, 0, 0, 0, 0]
[892, 0, 0, 0, 0, 0, 0, 0, 0, 0]
[958, 0, 0, 0, 0, 0, 0, 0, 0, 0]
[1028, 0, 0, 0, 0, 0, 0, 0, 0, 0]
[974, 0, 0, 0, 0, 0, 0, 0, 0, 0]
[1009, 0, 0, 0, 0, 0, 0, 0, 0, 0]
Epoch: 1
Type: Training Data
0.92115 correct
Epoch: 1
Type: Test Data
0.9175 correct
[955, 0, 0, 1, 0, 2, 15, 3, 4, 0]
[0, 1112, 1, 4, 0, 0, 6, 1, 11, 0]
[19, 16, 856, 67, 10, 0, 20, 12, 25, 7]
[2, 1, 7, 945, 0, 22, 9, 7, 11, 6]
[1, 3, 2, 3, 864, 1, 23, 1, 7, 77]
[15, 5, 0, 35, 6, 774, 19, 4, 25, 9]
[14, 3, 1, 1, 4, 15, 918, 0, 2, 0]
[2, 16, 16, 17, 5, 1, 0, 923, 9, 39]
[5, 9, 2, 35, 6, 9, 14, 5, 878, 11]
[11, 10, 0, 13, 7, 4, 3, 2, 9, 950]
Epoch: 2
Type: Training Data
0.929733333333 correct
Epoch: 2
Type: Test Data
0.9239 correct
[960, 0, 0, 1, 0, 2, 10, 3, 4, 0]
[0, 1111, 2, 5, 0, 0, 5, 1, 10, 1]
[23, 6, 874, 60, 12, 0, 17, 9, 26, 5]
[6, 1, 5, 954, 0, 11, 7, 6, 12, 8]
[1, 2, 3, 0, 885, 0, 18, 0, 8, 65]
[19, 1, 1, 40, 7, 757, 20, 6, 32, 9]
[12, 3, 1, 1, 4, 11, 920, 0, 5, 1]
[3, 13, 17, 9, 6, 1, 1, 929, 11, 38]
[7, 5, 1, 25, 7, 4, 14, 4, 895, 12]
[11, 7, 0, 13, 8, 2, 3, 3, 8, 954]
Epoch: 3
Type: Training Data
0.934883333333 correct
Epoch: 3
Type: Test Data
0.9289 correct
[964, 0, 0, 1, 0, 2, 8, 2, 3, 0]
[0, 1111, 2, 5, 0, 0, 5, 2, 10, 0]
[23, 6, 889, 54, 10, 0, 14, 6, 24, 6]
[6, 0, 5, 954, 1, 8, 6, 4, 15, 11]
[2, 2, 3, 0, 891, 0, 16, 0, 5, 63]
[19, 1, 1, 40, 8, 758, 19, 5, 29, 12]
[10, 3, 0, 1, 4, 10, 921, 0, 8, 1]
[4, 11, 17, 6, 4, 0, 1, 947, 8, 30]
[6, 5, 0, 24, 6, 5, 14, 3, 900, 11]
[11, 6, 0, 12, 11, 2, 2, 4, 7, 954]
Epoch: 4
Type: Training Data
0.939116666667 correct
Epoch: 4
Type: Test Data
0.9307 correct
[966, 0, 0, 1, 0, 1, 8, 2, 2, 0]
[0, 1110, 3, 4, 0, 1, 5, 2, 10, 0]
[21, 6, 894, 51, 11, 0, 14, 6, 23, 6]
[7, 0, 6, 950, 1, 8, 6, 4, 18, 10]
[2, 2, 3, 0, 897, 0, 14, 0, 5, 59]
[18, 1, 1, 42, 7, 763, 15, 5, 26, 14]
[11, 3, 0, 0, 5, 8, 923, 0, 7, 1]
[3, 11, 16, 6, 4, 0, 1, 951, 7, 29]
[8, 6, 1, 19, 6, 6, 14, 3, 900, 11]
[11, 6, 0, 11, 12, 2, 1, 4, 9, 953]
Epoch: 5
Type: Training Data
0.942533333333 correct
Epoch: 5
Type: Test Data
0.9345 correct
[965, 0, 0, 0, 0, 1, 9, 2, 3, 0]
[0, 1111, 3, 2, 0, 0, 6, 2, 11, 0]
[19, 5, 908, 39, 9, 0, 13, 7, 25, 7]
[8, 0, 5, 952, 1, 6, 6, 7, 18, 7]
[3, 2, 3, 0, 899, 0, 13, 0, 6, 56]
[15, 1, 0, 35, 5, 772, 16, 6, 27, 15]
[12, 3, 0, 0, 5, 8, 922, 0, 8, 0]
[3, 11, 15, 5, 3, 0, 0, 958, 8, 25]
[8, 6, 2, 15, 6, 5, 13, 3, 907, 9]
[10, 6, 0, 10, 12, 2, 1, 5, 12, 951]
Epoch: 6
Type: Training Data
0.944816666667 correct
Epoch: 6
Type: Test Data
0.9363 correct
[965, 0, 0, 0, 0, 1, 9, 2, 3, 0]
[0, 1110, 3, 2, 0, 1, 6, 2, 11, 0]
[16, 6, 913, 36, 9, 0, 12, 5, 28, 7]
[6, 0, 5, 952, 2, 7, 6, 6, 19, 7]
[3, 2, 3, 0, 903, 0, 12, 0, 6, 53]
[15, 1, 0, 28, 4, 782, 15, 7, 26, 14]
[12, 3, 0, 0, 5, 10, 921, 0, 7, 0]
[2, 11, 15, 4, 3, 0, 0, 959, 8, 26]
[8, 7, 2, 14, 6, 6, 12, 3, 908, 8]
[10, 7, 0, 9, 13, 2, 1, 5, 12, 950]
Epoch: 7
Type: Training Data
0.94655 correct
Epoch: 7
Type: Test Data
0.9374 correct
[962, 0, 0, 0, 0, 3, 9, 3, 3, 0]
[0, 1108, 3, 2, 0, 1, 5, 2, 13, 1]
[16, 6, 917, 31, 9, 0, 13, 6, 27, 7]
[5, 0, 4, 952, 2, 8, 6, 6, 19, 8]
[3, 1, 3, 0, 904, 0, 11, 0, 6, 54]
[14, 1, 0, 25, 2, 789, 15, 7, 26, 13]
[12, 3, 0, 0, 6, 11, 919, 0, 7, 0]
[2, 11, 14, 3, 4, 0, 0, 961, 8, 25]
[9, 6, 1, 12, 6, 6, 12, 3, 911, 8]
[9, 6, 0, 9, 13, 2, 1, 5, 13, 951]
Epoch: 8
Type: Training Data
0.948616666667 correct
Epoch: 8
Type: Test Data
0.939 correct
[961, 0, 0, 0, 0, 4, 9, 3, 3, 0]
[1, 1109, 3, 2, 0, 0, 4, 1, 14, 1]
[16, 3, 925, 28, 9, 0, 12, 6, 25, 8]
[5, 0, 5, 951, 1, 8, 6, 5, 21, 8]
[2, 1, 4, 0, 905, 0, 11, 0, 6, 53]
[13, 1, 0, 25, 2, 794, 15, 7, 22, 13]
[11, 3, 0, 0, 6, 11, 919, 0, 8, 0]
[2, 10, 12, 2, 3, 0, 0, 964, 10, 25]
[9, 6, 1, 12, 6, 7, 12, 3, 910, 8]
[8, 6, 0, 8, 13, 2, 1, 5, 14, 952]
Epoch: 9
Type: Training Data
0.94985 correct
Epoch: 9
Type: Test Data
0.9394 correct
[959, 0, 0, 0, 0, 6, 9, 3, 3, 0]
[0, 1109, 3, 2, 0, 1, 4, 2, 13, 1]
[15, 2, 931, 23, 10, 0, 12, 8, 23, 8]
[5, 0, 5, 951, 1, 9, 6, 4, 20, 9]
[2, 1, 3, 0, 906, 1, 11, 0, 6, 52]
[12, 1, 0, 25, 2, 796, 15, 7, 22, 12]
[10, 3, 0, 1, 6, 12, 918, 0, 8, 0]
[1, 10, 12, 2, 3, 1, 0, 965, 10, 24]
[10, 6, 1, 13, 6, 8, 11, 3, 908, 8]
[7, 6, 0, 6, 13, 2, 1, 5, 18, 951]
Epoch: 10
Type: Training Data
0.951 correct
Epoch: 10
Type: Test Data
0.9402 correct
[957, 0, 0, 0, 0, 7, 8, 4, 4, 0]
[0, 1109, 3, 2, 0, 1, 4, 2, 13, 1]
[13, 2, 935, 23, 8, 0, 14, 7, 21, 9]
[5, 0, 5, 950, 1, 13, 5, 4, 20, 7]
[2, 1, 3, 0, 906, 1, 11, 1, 6, 51]
[11, 1, 0, 24, 2, 799, 14, 7, 22, 12]
[10, 3, 0, 1, 4, 13, 918, 0, 9, 0]
[1, 10, 12, 1, 3, 2, 0, 969, 9, 21]
[10, 6, 1, 10, 6, 9, 11, 3, 910, 8]
[7, 7, 0, 6, 13, 3, 1, 5, 18, 949]
Epoch: 11
Type: Training Data
0.951916666667 correct
Epoch: 11
Type: Test Data
0.9412 correct
[957, 0, 0, 0, 0, 8, 7, 4, 4, 0]
[0, 1109, 3, 2, 0, 1, 4, 2, 13, 1]
[12, 2, 940, 21, 7, 1, 14, 7, 19, 9]
[4, 0, 5, 950, 1, 15, 4, 5, 20, 6]
[2, 1, 3, 0, 905, 2, 11, 1, 5, 52]
[11, 1, 0, 20, 3, 804, 14, 7, 21, 11]
[10, 3, 0, 1, 4, 13, 918, 0, 9, 0]
[1, 10, 11, 1, 3, 2, 0, 970, 9, 21]
[11, 6, 1, 9, 6, 9, 11, 3, 911, 7]
[7, 7, 0, 4, 13, 5, 1, 5, 19, 948]
Epoch: 12
Type: Training Data
0.952216666667 correct
Epoch: 12
Type: Test Data
0.9414 correct
[957, 0, 0, 0, 1, 8, 7, 4, 3, 0]
[0, 1108, 3, 2, 0, 1, 5, 2, 13, 1]
[13, 1, 938, 25, 8, 2, 14, 7, 17, 7]
[4, 0, 5, 949, 1, 17, 4, 5, 20, 5]
[2, 2, 2, 0, 908, 1, 12, 1, 5, 49]
[9, 1, 0, 20, 3, 807, 14, 7, 20, 11]
[10, 3, 0, 0, 4, 14, 916, 0, 11, 0]
[1, 10, 9, 2, 3, 2, 0, 970, 9, 22]
[11, 6, 1, 10, 6, 8, 11, 3, 912, 6]
[6, 7, 0, 4, 13, 5, 1, 6, 18, 949]
Epoch: 13
Type: Training Data
0.9529 correct
Epoch: 13
Type: Test Data
0.9417 correct
[959, 0, 0, 0, 1, 7, 7, 3, 3, 0]
[0, 1108, 3, 2, 0, 1, 5, 2, 13, 1]
[13, 2, 930, 29, 7, 3, 16, 8, 18, 6]
[4, 0, 5, 951, 1, 15, 3, 5, 21, 5]
[2, 2, 2, 1, 908, 1, 11, 1, 5, 49]
[8, 1, 0, 18, 3, 811, 11, 8, 22, 10]
[9, 3, 0, 1, 4, 14, 916, 0, 11, 0]
[1, 10, 9, 2, 2, 2, 0, 971, 9, 22]
[11, 6, 1, 9, 6, 8, 11, 3, 914, 5]
[4, 7, 0, 5, 13, 6, 1, 6, 18, 949]
Epoch: 14
Type: Training Data
0.953116666667 correct
Epoch: 14
Type: Test Data
0.942 correct
[959, 0, 0, 0, 1, 7, 7, 3, 3, 0]
[0, 1108, 3, 2, 0, 1, 5, 2, 13, 1]
[11, 2, 930, 31, 7, 2, 16, 8, 19, 6]
[4, 0, 5, 949, 1, 14, 4, 5, 23, 5]
[1, 2, 2, 1, 910, 1, 12, 1, 5, 47]
[7, 1, 0, 19, 3, 811, 11, 8, 22, 10]
[7, 3, 0, 1, 3, 15, 918, 0, 11, 0]
[1, 10, 9, 2, 2, 1, 0, 973, 9, 21]
[11, 7, 0, 10, 6, 7, 11, 3, 914, 5]
[4, 7, 0, 4, 14, 7, 1, 6, 18, 948]
Epoch: 15
Type: Training Data
0.953683333333 correct
Epoch: 15
Type: Test Data
0.9425 correct
[956, 0, 0, 0, 1, 7, 9, 3, 4, 0]
[0, 1108, 4, 1, 0, 1, 5, 2, 13, 1]
[11, 2, 930, 31, 6, 3, 16, 8, 18, 7]
[3, 0, 5, 950, 1, 15, 4, 5, 22, 5]
[1, 2, 2, 0, 913, 1, 11, 1, 6, 45]
[7, 1, 0, 19, 3, 810, 12, 8, 22, 10]
[7, 3, 0, 0, 3, 17, 918, 0, 10, 0]
[1, 10, 9, 1, 2, 0, 0, 976, 9, 20]
[10, 7, 0, 10, 5, 6, 11, 3, 917, 5]
[4, 7, 0, 3, 14, 8, 1, 6, 19, 947]
Epoch: 16
Type: Training Data
0.9541 correct
Epoch: 16
Type: Test Data
0.9424 correct
[954, 0, 0, 0, 1, 8, 9, 3, 4, 1]
[0, 1108, 4, 1, 0, 1, 5, 2, 13, 1]
[10, 2, 931, 33, 7, 4, 16, 8, 15, 6]
[2, 0, 5, 948, 1, 16, 4, 5, 24, 5]
[1, 2, 1, 1, 913, 2, 11, 1, 6, 44]
[7, 1, 0, 18, 3, 811, 12, 8, 22, 10]
[7, 3, 0, 0, 3, 18, 917, 0, 10, 0]
[1, 10, 9, 2, 2, 0, 0, 976, 7, 21]
[10, 8, 0, 9, 5, 7, 10, 3, 917, 5]
[4, 6, 0, 3, 14, 9, 1, 6, 17, 949]
Epoch: 17
Type: Training Data
0.954416666667 correct
Epoch: 17
Type: Test Data
0.9419 correct
[954, 0, 0, 2, 1, 8, 8, 3, 3, 1]
[0, 1108, 4, 1, 0, 1, 5, 2, 13, 1]
[10, 2, 933, 33, 7, 4, 15, 8, 15, 5]
[2, 0, 5, 945, 1, 18, 5, 5, 24, 5]
[1, 2, 1, 1, 911, 2, 12, 1, 6, 45]
[7, 1, 0, 18, 3, 810, 12, 8, 23, 10]
[8, 3, 0, 0, 3, 18, 916, 0, 10, 0]
[1, 9, 9, 2, 2, 0, 0, 976, 7, 22]
[10, 8, 0, 9, 5, 7, 10, 3, 917, 5]
[4, 6, 0, 2, 14, 10, 1, 6, 17, 949]
Epoch: 18
Type: Training Data
0.954716666667 correct
Epoch: 18
Type: Test Data
0.9425 correct
[954, 0, 0, 1, 1, 8, 8, 3, 4, 1]
[0, 1108, 4, 1, 0, 1, 5, 2, 13, 1]
[9, 2, 931, 35, 7, 4, 15, 8, 16, 5]
[2, 0, 5, 948, 1, 16, 5, 5, 23, 5]
[1, 2, 1, 1, 912, 2, 12, 1, 6, 44]
[7, 1, 0, 17, 3, 811, 13, 8, 22, 10]
[8, 3, 0, 0, 3, 18, 916, 0, 10, 0]
[1, 9, 9, 2, 1, 0, 0, 976, 7, 23]
[9, 8, 0, 7, 5, 8, 9, 3, 920, 5]
[5, 6, 0, 1, 14, 10, 1, 6, 17, 949]
Epoch: 19
Type: Training Data
0.955016666667 correct
Epoch: 19
Type: Test Data
0.9427 correct
[954, 0, 0, 1, 1, 8, 8, 3, 4, 1]
[0, 1108, 4, 1, 0, 1, 4, 2, 14, 1]
[8, 2, 931, 35, 7, 4, 15, 8, 17, 5]
[2, 0, 5, 947, 0, 16, 5, 5, 25, 5]
[1, 2, 1, 1, 913, 2, 12, 1, 6, 43]
[7, 1, 0, 18, 3, 810, 13, 8, 22, 10]
[8, 3, 0, 0, 2, 19, 916, 0, 10, 0]
[1, 8, 9, 4, 1, 0, 0, 977, 6, 22]
[8, 8, 1, 7, 5, 6, 9, 3, 922, 5]
[3, 6, 0, 1, 14, 11, 1, 6, 18, 949]
Epoch: 20
Type: Training Data
0.9552 correct
Epoch: 20
Type: Test Data
0.9427 correct
[953, 0, 0, 1, 1, 9, 8, 3, 4, 1]
[0, 1108, 4, 1, 0, 1, 4, 2, 14, 1]
[8, 2, 933, 33, 7, 4, 15, 8, 17, 5]
[2, 0, 5, 947, 0, 17, 4, 5, 24, 6]
[1, 2, 1, 1, 910, 2, 12, 1, 6, 46]
[6, 1, 0, 19, 3, 811, 13, 8, 22, 9]
[6, 3, 0, 0, 3, 19, 917, 0, 10, 0]
[1, 7, 9, 4, 1, 0, 0, 978, 7, 21]
[8, 8, 1, 9, 5, 6, 9, 3, 920, 5]
[3, 6, 0, 2, 14, 11, 1, 6, 16, 950]
Epoch: 21
Type: Training Data
0.955183333333 correct
Epoch: 21
Type: Test Data
0.9423 correct
[950, 0, 0, 1, 1, 9, 9, 5, 4, 1]
[0, 1109, 4, 1, 0, 1, 4, 2, 13, 1]
[7, 3, 932, 33, 7, 4, 16, 9, 16, 5]
[2, 0, 5, 948, 0, 18, 4, 5, 22, 6]
[1, 2, 1, 1, 910, 2, 12, 1, 6, 46]
[6, 1, 0, 19, 3, 810, 13, 8, 23, 9]
[7, 3, 0, 0, 3, 18, 917, 0, 10, 0]
[1, 7, 9, 5, 1, 0, 0, 979, 6, 20]
[8, 8, 1, 11, 6, 6, 9, 3, 917, 5]
[3, 6, 0, 1, 13, 12, 1, 6, 16, 951]
Epoch: 22
Type: Training Data
0.955216666667 correct
Epoch: 22
Type: Test Data
0.9425 correct
[949, 0, 0, 1, 1, 9, 10, 5, 4, 1]
[0, 1109, 4, 1, 0, 1, 4, 2, 13, 1]
[7, 3, 933, 33, 7, 4, 15, 9, 16, 5]
[2, 0, 5, 947, 0, 19, 4, 5, 22, 6]
[1, 2, 1, 1, 912, 2, 12, 1, 6, 44]
[6, 1, 0, 19, 3, 811, 13, 8, 23, 8]
[8, 3, 0, 0, 3, 18, 916, 0, 10, 0]
[1, 7, 9, 5, 1, 0, 0, 980, 6, 19]
[8, 8, 1, 10, 6, 7, 9, 3, 917, 5]
[3, 6, 0, 1, 13, 12, 1, 5, 17, 951]
Epoch: 23
Type: Training Data
0.955516666667 correct
Epoch: 23
Type: Test Data
0.9426 correct
[949, 0, 0, 1, 1, 9, 10, 5, 4, 1]
[0, 1110, 4, 1, 0, 1, 4, 2, 13, 0]
[6, 3, 938, 30, 7, 4, 14, 9, 16, 5]
[2, 0, 6, 945, 0, 19, 4, 6, 22, 6]
[1, 2, 1, 1, 912, 2, 12, 1, 6, 44]
[6, 1, 0, 19, 3, 811, 13, 8, 23, 8]
[8, 3, 0, 0, 3, 18, 916, 0, 10, 0]
[1, 7, 9, 5, 1, 0, 0, 979, 7, 19]
[9, 7, 1, 10, 6, 7, 9, 3, 916, 6]
[3, 6, 0, 1, 13, 12, 1, 6, 17, 950]
Epoch: 24
Type: Training Data
0.955783333333 correct
Epoch: 24
Type: Test Data
0.942 correct
[948, 0, 0, 1, 1, 10, 10, 5, 4, 1]
[0, 1110, 4, 1, 0, 1, 4, 2, 13, 0]
[6, 4, 934, 31, 7, 4, 15, 10, 15, 6]
[2, 0, 6, 944, 0, 20, 4, 6, 22, 6]
[1, 2, 1, 1, 911, 2, 13, 1, 6, 44]
[6, 1, 0, 19, 3, 811, 13, 8, 23, 8]
[8, 3, 0, 0, 3, 18, 916, 0, 10, 0]
[1, 7, 9, 5, 1, 0, 0, 978, 8, 19]
[8, 7, 1, 10, 7, 7, 9, 3, 917, 5]
[3, 6, 0, 1, 13, 12, 1, 6, 16, 951]
Epoch: 25
Type: Training Data
0.956016666667 correct
Epoch: 25
Type: Test Data
0.9416 correct
[946, 0, 0, 1, 1, 11, 11, 5, 4, 1]
[0, 1111, 4, 1, 0, 1, 4, 2, 12, 0]
[6, 4, 934, 30, 7, 5, 15, 10, 15, 6]
[1, 0, 6, 941, 0, 22, 4, 5, 25, 6]
[1, 2, 1, 1, 911, 2, 15, 1, 5, 43]
[6, 1, 0, 19, 3, 811, 13, 8, 23, 8]
[8, 3, 0, 0, 3, 19, 915, 0, 10, 0]
[1, 7, 9, 5, 1, 0, 0, 978, 8, 19]
[8, 7, 1, 10, 7, 7, 9, 3, 917, 5]
[3, 5, 0, 1, 13, 12, 1, 6, 16, 952]
Epoch: 26
Type: Training Data
0.956566666667 correct
Epoch: 26
Type: Test Data
0.9419 correct
[947, 0, 0, 2, 1, 12, 11, 3, 3, 1]
[0, 1111, 4, 1, 0, 1, 4, 2, 12, 0]
[5, 3, 940, 29, 7, 5, 15, 8, 15, 5]
[3, 0, 5, 940, 0, 23, 3, 5, 25, 6]
[1, 2, 1, 1, 912, 2, 15, 1, 5, 42]
[6, 1, 0, 19, 3, 809, 14, 8, 22, 10]
[8, 3, 0, 0, 4, 19, 915, 0, 9, 0]
[1, 7, 9, 6, 1, 0, 0, 977, 7, 20]
[8, 7, 1, 10, 7, 7, 9, 3, 916, 6]
[2, 5, 0, 2, 13, 12, 1, 6, 16, 952]
Epoch: 27
Type: Training Data
0.957033333333 correct
Epoch: 27
Type: Test Data
0.9419 correct
[947, 0, 0, 2, 1, 11, 11, 3, 4, 1]
[0, 1111, 4, 1, 0, 1, 4, 3, 11, 0]
[5, 3, 940, 29, 6, 5, 15, 9, 15, 5]
[3, 0, 7, 938, 0, 23, 3, 5, 25, 6]
[1, 2, 1, 1, 912, 2, 15, 1, 5, 42]
[6, 1, 0, 17, 3, 811, 14, 8, 22, 10]
[9, 3, 0, 0, 4, 19, 914, 0, 9, 0]
[1, 7, 9, 6, 1, 0, 0, 976, 7, 21]
[8, 7, 1, 10, 7, 7, 9, 3, 916, 6]
[2, 5, 0, 2, 13, 12, 1, 5, 15, 954]
Epoch: 28
Type: Training Data
0.957433333333 correct
Epoch: 28
Type: Test Data
0.9416 correct
[946, 0, 0, 2, 1, 11, 12, 3, 4, 1]
[0, 1112, 4, 1, 0, 1, 4, 3, 10, 0]
[5, 3, 941, 30, 6, 5, 14, 9, 14, 5]
[3, 0, 8, 936, 0, 24, 4, 5, 24, 6]
[1, 2, 1, 1, 913, 2, 15, 1, 5, 41]
[6, 1, 0, 18, 3, 810, 14, 8, 22, 10]
[9, 3, 0, 0, 4, 20, 913, 0, 9, 0]
[1, 7, 9, 6, 1, 0, 0, 975, 7, 22]
[8, 7, 1, 10, 7, 7, 9, 3, 916, 6]
[2, 5, 0, 2, 13, 12, 1, 5, 15, 954]
Epoch: 29
Type: Training Data
0.95775 correct
Epoch: 29
Type: Test Data
0.9414 correct
[946, 0, 0, 2, 1, 10, 13, 3, 4, 1]
[0, 1112, 4, 1, 0, 1, 4, 2, 11, 0]
[6, 3, 940, 31, 6, 5, 13, 9, 14, 5]
[3, 0, 8, 936, 0, 24, 4, 5, 24, 6]
[1, 2, 1, 1, 913, 2, 15, 1, 5, 41]
[6, 1, 0, 19, 3, 810, 13, 8, 22, 10]
[9, 3, 0, 0, 4, 20, 913, 0, 9, 0]
[1, 7, 9, 5, 1, 0, 0, 975, 7, 23]
[8, 7, 1, 10, 7, 7, 9, 3, 915, 7]
[1, 5, 0, 1, 13, 14, 1, 5, 15, 954]
Epoch: 30
Type: Training Data
0.957883333333 correct
Epoch: 30
Type: Test Data
0.9414 correct
[946, 0, 0, 2, 1, 10, 13, 3, 4, 1]
[0, 1112, 4, 1, 0, 1, 4, 2, 11, 0]
[4, 4, 941, 31, 6, 5, 13, 9, 14, 5]
[2, 0, 8, 936, 0, 24, 5, 5, 24, 6]
[1, 2, 1, 1, 912, 2, 15, 1, 5, 42]
[6, 1, 0, 18, 4, 810, 13, 8, 22, 10]
[9, 3, 0, 0, 4, 20, 913, 0, 9, 0]
[1, 7, 9, 4, 1, 0, 0, 975, 7, 24]
[8, 7, 1, 10, 7, 7, 9, 3, 915, 7]
[1, 5, 0, 1, 13, 14, 1, 5, 15, 954]
Epoch: 31
Type: Training Data
0.958083333333 correct
Epoch: 31
Type: Test Data
0.9413 correct
[947, 0, 0, 1, 1, 10, 12, 3, 5, 1]
[0, 1112, 4, 1, 0, 1, 4, 2, 11, 0]
[4, 4, 940, 31, 6, 6, 13, 9, 14, 5]
[2, 0, 8, 936, 0, 23, 5, 5, 25, 6]
[1, 2, 1, 1, 911, 2, 16, 1, 5, 42]
[6, 1, 0, 18, 4, 810, 13, 8, 22, 10]
[8, 3, 0, 0, 4, 20, 913, 0, 10, 0]
[1, 6, 9, 4, 1, 0, 0, 974, 8, 25]
[8, 7, 1, 9, 7, 8, 9, 3, 915, 7]
[1, 5, 0, 1, 13, 14, 1, 5, 14, 955]
Epoch: 32
Type: Training Data
0.95815 correct
Epoch: 32
Type: Test Data
0.9413 correct
[947, 0, 0, 1, 1, 10, 12, 3, 5, 1]
[0, 1112, 4, 1, 0, 1, 4, 2, 11, 0]
[4, 5, 941, 30, 6, 5, 13, 9, 14, 5]
[2, 0, 8, 935, 0, 23, 5, 5, 26, 6]
[1, 2, 1, 1, 911, 2, 16, 1, 5, 42]
[5, 1, 0, 20, 3, 811, 13, 7, 22, 10]
[8, 3, 0, 0, 4, 20, 913, 0, 10, 0]
[0, 6, 9, 4, 1, 0, 0, 975, 8, 25]
[8, 8, 1, 8, 7, 9, 9, 3, 914, 7]
[2, 5, 0, 1, 13, 13, 1, 5, 15, 954]
Epoch: 33
Type: Training Data
0.958283333333 correct
Epoch: 33
Type: Test Data
0.9411 correct
[946, 0, 0, 1, 1, 10, 12, 4, 5, 1]
[0, 1112, 4, 1, 0, 1, 4, 2, 11, 0]
[4, 5, 941, 31, 6, 3, 14, 9, 14, 5]
[2, 0, 8, 935, 0, 22, 5, 5, 28, 5]
[1, 2, 1, 2, 910, 2, 16, 1, 5, 42]
[5, 1, 0, 20, 3, 811, 13, 7, 22, 10]
[8, 3, 0, 0, 5, 20, 912, 0, 10, 0]
[0, 6, 9, 4, 1, 0, 0, 976, 8, 24]
[8, 7, 1, 8, 7, 10, 9, 3, 914, 7]
[2, 5, 0, 1, 13, 13, 1, 5, 15, 954]
Epoch: 34
Type: Training Data
0.958483333333 correct
Epoch: 34
Type: Test Data
0.9411 correct
[947, 0, 0, 1, 1, 9, 12, 4, 5, 1]
[0, 1112, 4, 1, 0, 1, 4, 2, 11, 0]
[4, 5, 942, 30, 6, 3, 14, 8, 15, 5]
[2, 0, 10, 935, 0, 22, 5, 5, 26, 5]
[1, 2, 1, 2, 910, 2, 16, 1, 5, 42]
[5, 1, 0, 20, 3, 811, 13, 7, 22, 10]
[8, 3, 0, 0, 5, 19, 912, 0, 11, 0]
[0, 6, 9, 4, 3, 0, 0, 974, 8, 24]
[8, 7, 1, 9, 7, 9, 9, 3, 914, 7]
[2, 5, 0, 1, 13, 13, 1, 5, 15, 954]
Epoch: 35
Type: Training Data
0.958666666667 correct
Epoch: 35
Type: Test Data
0.941 correct
[946, 0, 0, 1, 1, 9, 12, 5, 5, 1]
[0, 1113, 3, 2, 0, 2, 4, 2, 9, 0]
[4, 5, 941, 31, 6, 3, 13, 9, 15, 5]
[2, 0, 10, 938, 0, 19, 5, 5, 26, 5]
[1, 2, 1, 2, 911, 1, 17, 1, 5, 41]
[5, 1, 0, 20, 3, 808, 15, 7, 22, 11]
[8, 3, 0, 0, 5, 19, 912, 0, 11, 0]
[0, 6, 9, 5, 3, 0, 0, 973, 8, 24]
[8, 7, 1, 9, 7, 9, 9, 3, 914, 7]
[2, 5, 0, 1, 13, 13, 1, 5, 15, 954]
Epoch: 36
Type: Training Data
0.959133333333 correct
Epoch: 36
Type: Test Data
0.9407 correct
[945, 0, 0, 1, 1, 9, 13, 5, 5, 1]
[0, 1113, 3, 2, 0, 2, 4, 2, 9, 0]
[3, 5, 942, 31, 6, 3, 13, 9, 15, 5]
[2, 0, 10, 938, 0, 19, 5, 5, 25, 6]
[1, 2, 2, 1, 911, 1, 17, 1, 5, 41]
[5, 1, 0, 21, 3, 806, 15, 7, 22, 12]
[8, 3, 0, 0, 5, 19, 912, 0, 11, 0]
[0, 6, 9, 5, 4, 0, 0, 972, 8, 24]
[8, 7, 1, 9, 7, 9, 9, 3, 914, 7]
[2, 5, 0, 1, 13, 13, 1, 5, 15, 954]
Epoch: 37
Type: Training Data
0.959216666667 correct
Epoch: 37
Type: Test Data
0.9405 correct
[945, 0, 0, 1, 1, 9, 13, 5, 5, 1]
[0, 1113, 3, 2, 0, 2, 4, 2, 9, 0]
[3, 5, 941, 31, 7, 3, 14, 8, 15, 5]
[2, 0, 10, 938, 0, 19, 5, 5, 26, 5]
[1, 2, 2, 2, 911, 1, 17, 1, 5, 40]
[5, 1, 0, 21, 3, 806, 15, 7, 22, 12]
[8, 3, 0, 0, 5, 19, 912, 0, 11, 0]
[0, 6, 9, 5, 4, 0, 0, 970, 9, 25]
[8, 7, 1, 8, 7, 9, 9, 3, 915, 7]
[2, 5, 0, 1, 13, 13, 1, 5, 15, 954]
Epoch: 38
Type: Training Data
0.959333333333 correct
Epoch: 38
Type: Test Data
0.9409 correct
[945, 0, 0, 1, 1, 9, 13, 5, 5, 1]
[0, 1113, 3, 2, 0, 2, 4, 2, 9, 0]
[3, 5, 942, 31, 7, 3, 14, 8, 14, 5]
[2, 0, 10, 938, 0, 21, 4, 6, 24, 5]
[1, 2, 2, 2, 912, 1, 17, 0, 5, 40]
[5, 1, 0, 19, 3, 809, 15, 7, 22, 11]
[8, 3, 0, 0, 6, 19, 911, 0, 11, 0]
[0, 6, 9, 4, 4, 0, 0, 969, 9, 27]
[8, 7, 1, 7, 7, 9, 9, 3, 916, 7]
[2, 5, 0, 1, 13, 12, 1, 5, 16, 954]
Epoch: 39
Type: Training Data
0.959483333333 correct
Epoch: 39
Type: Test Data
0.9411 correct
[945, 0, 0, 1, 1, 9, 13, 5, 5, 1]
[0, 1113, 3, 2, 0, 2, 4, 2, 9, 0]
[3, 5, 943, 30, 7, 3, 14, 8, 14, 5]
[3, 0, 10, 937, 0, 20, 4, 6, 24, 6]
[1, 2, 2, 2, 912, 1, 18, 0, 5, 39]
[5, 1, 0, 19, 3, 810, 15, 7, 21, 11]
[7, 3, 0, 0, 5, 19, 912, 0, 12, 0]
[0, 6, 9, 4, 4, 0, 0, 969, 9, 27]
[8, 7, 1, 7, 7, 9, 9, 3, 916, 7]
[2, 5, 0, 1, 13, 12, 1, 5, 16, 954]
Epoch: 40
Type: Training Data
0.959616666667 correct
Epoch: 40
Type: Test Data
0.9409 correct
[945, 0, 0, 1, 1, 9, 13, 5, 5, 1]
[0, 1113, 3, 2, 0, 2, 4, 2, 9, 0]
[3, 4, 944, 30, 7, 3, 14, 8, 14, 5]
[3, 0, 10, 937, 0, 19, 4, 6, 24, 7]
[1, 2, 2, 2, 912, 1, 18, 0, 5, 39]
[5, 1, 0, 19, 3, 810, 15, 7, 21, 11]
[7, 3, 0, 0, 6, 19, 911, 0, 12, 0]
[0, 6, 9, 5, 4, 0, 0, 968, 9, 27]
[9, 7, 1, 7, 7, 9, 9, 3, 915, 7]
[2, 5, 0, 1, 13, 13, 1, 4, 16, 954]
Epoch: 41
Type: Training Data
0.959833333333 correct
Epoch: 41
Type: Test Data
0.9406 correct
[945, 0, 0, 1, 1, 9, 13, 5, 5, 1]
[0, 1113, 3, 2, 0, 2, 4, 2, 9, 0]
[3, 4, 944, 31, 7, 3, 13, 8, 14, 5]
[3, 0, 10, 936, 0, 19, 4, 7, 24, 7]
[1, 2, 2, 2, 913, 1, 18, 0, 5, 38]
[5, 1, 0, 20, 3, 809, 15, 7, 21, 11]
[7, 3, 0, 0, 6, 19, 911, 0, 12, 0]
[0, 6, 9, 5, 4, 0, 0, 968, 9, 27]
[9, 7, 1, 7, 7, 9, 10, 3, 914, 7]
[2, 5, 0, 1, 13, 13, 1, 5, 16, 953]
Epoch: 42
Type: Training Data
0.960233333333 correct
Epoch: 42
Type: Test Data
0.9403 correct
[943, 0, 0, 1, 1, 11, 13, 5, 5, 1]
[0, 1113, 3, 2, 0, 2, 4, 2, 9, 0]
[3, 4, 944, 31, 7, 3, 13, 8, 14, 5]
[3, 0, 10, 937, 0, 19, 3, 7, 24, 7]
[1, 2, 2, 2, 913, 1, 18, 0, 5, 38]
[6, 1, 0, 21, 3, 807, 15, 7, 21, 11]
[7, 3, 0, 0, 6, 19, 911, 0, 12, 0]
[0, 6, 10, 5, 4, 0, 0, 968, 8, 27]
[9, 7, 1, 6, 7, 9, 10, 3, 915, 7]
[2, 6, 0, 1, 13, 13, 1, 5, 16, 952]
Epoch: 43
Type: Training Data
0.960433333333 correct
Epoch: 43
Type: Test Data
0.9405 correct
[944, 0, 0, 1, 1, 11, 13, 4, 5, 1]
[0, 1113, 3, 2, 0, 2, 4, 2, 9, 0]
[3, 5, 944, 30, 7, 3, 13, 8, 14, 5]
[3, 0, 10, 937, 0, 19, 3, 7, 24, 7]
[1, 2, 2, 2, 913, 1, 18, 0, 5, 38]
[6, 1, 0, 21, 3, 807, 15, 7, 21, 11]
[7, 3, 1, 0, 6, 19, 910, 0, 12, 0]
[0, 6, 10, 5, 4, 0, 0, 970, 8, 25]
[9, 7, 1, 6, 7, 9, 10, 3, 915, 7]
[2, 6, 0, 1, 13, 13, 1, 5, 16, 952]
Epoch: 44
Type: Training Data
0.9605 correct
Epoch: 44
Type: Test Data
0.9404 correct
[944, 0, 0, 1, 1, 11, 13, 4, 5, 1]
[0, 1113, 3, 2, 0, 2, 4, 2, 9, 0]
[3, 6, 942, 29, 7, 4, 13, 9, 14, 5]
[3, 0, 10, 937, 0, 19, 3, 7, 24, 7]
[1, 2, 2, 2, 913, 1, 18, 0, 5, 38]
[6, 1, 0, 21, 3, 807, 15, 7, 21, 11]
[7, 3, 1, 0, 6, 19, 910, 0, 12, 0]
[0, 6, 10, 5, 4, 0, 0, 970, 8, 25]
[8, 7, 1, 6, 7, 9, 10, 3, 916, 7]
[2, 6, 0, 1, 13, 13, 1, 5, 16, 952]
Epoch: 45
Type: Training Data
0.9607 correct
Epoch: 45
Type: Test Data
0.9407 correct
[944, 0, 0, 1, 1, 11, 12, 5, 5, 1]
[0, 1114, 3, 1, 0, 2, 4, 2, 9, 0]
[3, 6, 943, 27, 7, 4, 13, 9, 15, 5]
[2, 0, 10, 938, 0, 19, 3, 7, 24, 7]
[1, 2, 2, 2, 913, 1, 18, 0, 5, 38]
[6, 1, 0, 21, 3, 807, 14, 7, 22, 11]
[7, 3, 1, 0, 6, 19, 910, 0, 12, 0]
[0, 6, 10, 5, 4, 0, 0, 970, 8, 25]
[8, 7, 1, 6, 7, 10, 10, 3, 916, 6]
[2, 6, 0, 1, 13, 13, 1, 5, 16, 952]
Epoch: 46
Type: Training Data
0.960766666667 correct
Epoch: 46
Type: Test Data
0.9405 correct
[944, 0, 0, 1, 1, 11, 12, 5, 5, 1]
[0, 1114, 3, 1, 0, 2, 4, 2, 9, 0]
[2, 6, 944, 28, 7, 4, 12, 9, 15, 5]
[2, 0, 9, 938, 0, 19, 3, 7, 24, 8]
[1, 2, 2, 2, 913, 1, 18, 0, 5, 38]
[6, 1, 0, 22, 3, 806, 14, 7, 22, 11]
[7, 3, 1, 0, 6, 19, 910, 0, 12, 0]
[0, 6, 11, 5, 4, 0, 0, 970, 8, 24]
[8, 7, 1, 7, 7, 10, 10, 3, 914, 7]
[2, 6, 0, 1, 13, 13, 1, 5, 16, 952]
Epoch: 47
Type: Training Data
0.960966666667 correct
Epoch: 47
Type: Test Data
0.9404 correct
[943, 0, 0, 1, 1, 11, 12, 5, 6, 1]
[0, 1114, 3, 1, 0, 2, 4, 2, 9, 0]
[2, 6, 945, 27, 7, 4, 12, 9, 15, 5]
[2, 0, 9, 938, 0, 19, 3, 7, 24, 8]
[1, 2, 2, 2, 913, 1, 18, 0, 5, 38]
[6, 1, 0, 22, 3, 806, 14, 7, 22, 11]
[7, 3, 1, 0, 6, 19, 910, 0, 12, 0]
[0, 6, 11, 5, 4, 0, 0, 969, 8, 25]
[8, 8, 1, 7, 7, 9, 10, 3, 914, 7]
[2, 6, 0, 1, 13, 13, 1, 5, 16, 952]
Epoch: 48
Type: Training Data
0.961133333333 correct
Epoch: 48
Type: Test Data
0.9403 correct
[943, 0, 0, 1, 1, 11, 12, 5, 6, 1]
[0, 1114, 3, 1, 0, 2, 4, 2, 9, 0]
[2, 6, 946, 27, 7, 4, 12, 8, 15, 5]
[2, 0, 9, 938, 0, 19, 3, 7, 24, 8]
[1, 2, 2, 2, 912, 1, 18, 0, 5, 39]
[6, 1, 0, 22, 2, 807, 14, 7, 22, 11]
[8, 3, 1, 0, 6, 19, 909, 0, 12, 0]
[0, 6, 11, 5, 4, 0, 0, 969, 8, 25]
[8, 8, 1, 7, 7, 9, 10, 3, 914, 7]
[2, 6, 0, 1, 14, 13, 1, 5, 16, 951]
Epoch: 49
Type: Training Data
0.961183333333 correct
Epoch: 49
Type: Test Data
0.94 correct
[943, 0, 0, 1, 1, 11, 12, 5, 6, 1]
[0, 1113, 3, 1, 0, 2, 4, 2, 10, 0]
[2, 6, 947, 26, 7, 4, 12, 9, 15, 4]
[2, 0, 9, 938, 0, 19, 3, 7, 24, 8]
[1, 2, 2, 2, 911, 1, 18, 0, 5, 40]
[6, 1, 0, 22, 2, 807, 14, 7, 22, 11]
[10, 3, 1, 0, 6, 19, 907, 0, 12, 0]
[0, 6, 11, 5, 4, 0, 0, 969, 8, 25]
[8, 8, 1, 7, 7, 9, 10, 3, 914, 7]
[2, 6, 0, 1, 14, 13, 1, 5, 16, 951]
0.0987166666667
0.92115
0.929733333333
0.934883333333
0.939116666667
0.942533333333
0.944816666667
0.94655
0.948616666667
0.94985
0.951
0.951916666667
0.952216666667
0.9529
0.953116666667
0.953683333333
0.9541
0.954416666667
0.954716666667
0.955016666667
0.9552
0.955183333333
0.955216666667
0.955516666667
0.955783333333
0.956016666667
0.956566666667
0.957033333333
0.957433333333
0.95775
0.957883333333
0.958083333333
0.95815
0.958283333333
0.958483333333
0.958666666667
0.959133333333
0.959216666667
0.959333333333
0.959483333333
0.959616666667
0.959833333333
0.960233333333
0.960433333333
0.9605
0.9607
0.960766666667
0.960966666667
0.961133333333
0.961183333333

0.098
0.9175
0.9239
0.9289
0.9307
0.9345
0.9363
0.9374
0.939
0.9394
0.9402
0.9412
0.9414
0.9417
0.942
0.9425
0.9424
0.9419
0.9425
0.9427
0.9427
0.9423
0.9425
0.9426
0.942
0.9416
0.9419
0.9419
0.9416
0.9414
0.9414
0.9413
0.9413
0.9411
0.9411
0.941
0.9407
0.9405
0.9409
0.9411
0.9409
0.9406
0.9403
0.9405
0.9404
0.9407
0.9405
0.9404
0.9403
0.94
Nodes: 50
Epoch: 0
Type: Training Data
0.102183333333 correct
Epoch: 0
Type: Test Data
0.101 correct
[0, 0, 0, 980, 0, 0, 0, 0, 0, 0]
[0, 0, 0, 1135, 0, 0, 0, 0, 0, 0]
[0, 0, 0, 1032, 0, 0, 0, 0, 0, 0]
[0, 0, 0, 1010, 0, 0, 0, 0, 0, 0]
[0, 0, 0, 982, 0, 0, 0, 0, 0, 0]
[0, 0, 0, 892, 0, 0, 0, 0, 0, 0]
[0, 0, 0, 958, 0, 0, 0, 0, 0, 0]
[0, 0, 0, 1028, 0, 0, 0, 0, 0, 0]
[0, 0, 0, 974, 0, 0, 0, 0, 0, 0]
[0, 0, 0, 1009, 0, 0, 0, 0, 0, 0]
Epoch: 1
Type: Training Data
0.939783333333 correct
Epoch: 1
Type: Test Data
0.9384 correct
[963, 0, 0, 0, 1, 3, 7, 2, 4, 0]
[0, 1117, 3, 2, 1, 0, 4, 0, 8, 0]
[9, 3, 933, 27, 9, 1, 10, 7, 28, 5]
[1, 1, 7, 972, 0, 4, 1, 4, 8, 12]
[1, 3, 3, 0, 911, 0, 12, 0, 2, 50]
[10, 1, 1, 32, 8, 785, 17, 3, 22, 13]
[11, 3, 0, 4, 3, 6, 925, 0, 6, 0]
[3, 21, 15, 10, 6, 0, 1, 926, 1, 45]
[4, 4, 1, 31, 9, 3, 11, 4, 891, 16]
[6, 8, 0, 13, 11, 0, 1, 2, 7, 961]
Epoch: 2
Type: Training Data
0.956633333333 correct
Epoch: 2
Type: Test Data
0.953 correct
[964, 0, 0, 0, 1, 4, 6, 1, 4, 0]
[0, 1121, 3, 2, 0, 1, 3, 0, 5, 0]
[7, 0, 966, 11, 7, 0, 9, 7, 21, 4]
[0, 0, 8, 976, 0, 5, 1, 5, 10, 5]
[1, 3, 3, 0, 922, 0, 10, 0, 2, 41]
[8, 1, 2, 19, 3, 817, 13, 3, 15, 11]
[9, 3, 1, 1, 2, 5, 933, 0, 4, 0]
[1, 17, 15, 7, 6, 0, 1, 948, 2, 31]
[3, 2, 2, 17, 10, 3, 8, 3, 915, 11]
[5, 8, 0, 12, 8, 0, 1, 2, 5, 968]
Epoch: 3
Type: Training Data
0.9637 correct
Epoch: 3
Type: Test Data
0.9586 correct
[966, 0, 1, 0, 0, 3, 5, 1, 4, 0]
[0, 1122, 2, 2, 0, 1, 4, 0, 4, 0]
[6, 1, 973, 11, 6, 1, 9, 7, 15, 3]
[0, 0, 8, 977, 0, 6, 1, 5, 8, 5]
[1, 2, 3, 0, 934, 0, 9, 0, 2, 31]
[6, 1, 2, 15, 2, 831, 13, 2, 14, 6]
[7, 3, 3, 1, 1, 5, 936, 0, 2, 0]
[0, 14, 18, 5, 6, 0, 1, 958, 2, 24]
[3, 3, 2, 16, 8, 3, 7, 3, 922, 7]
[5, 8, 0, 12, 11, 1, 1, 1, 3, 967]
Epoch: 4
Type: Training Data
0.967716666667 correct
Epoch: 4
Type: Test Data
0.9613 correct
[969, 0, 1, 0, 0, 3, 4, 1, 2, 0]
[0, 1123, 2, 3, 0, 1, 3, 0, 3, 0]
[6, 1, 979, 10, 7, 0, 8, 7, 12, 2]
[0, 0, 8, 977, 0, 6, 0, 6, 6, 7]
[1, 1, 3, 0, 935, 0, 9, 0, 2, 31]
[6, 1, 1, 14, 1, 838, 11, 2, 13, 5]
[8, 3, 3, 1, 1, 5, 932, 0, 4, 1]
[0, 10, 19, 4, 4, 0, 0, 969, 2, 20]
[3, 4, 4, 12, 9, 3, 7, 2, 925, 5]
[5, 8, 0, 12, 11, 0, 1, 2, 4, 966]
Epoch: 5
Type: Training Data
0.9708 correct
Epoch: 5
Type: Test Data
0.9626 correct
[969, 0, 0, 1, 0, 3, 3, 1, 2, 1]
[0, 1122, 2, 3, 0, 1, 3, 0, 4, 0]
[5, 1, 983, 10, 7, 0, 6, 7, 11, 2]
[0, 0, 5, 979, 0, 8, 0, 5, 6, 7]
[1, 1, 3, 0, 933, 0, 9, 1, 2, 32]
[5, 1, 0, 16, 1, 842, 8, 1, 12, 6]
[9, 3, 3, 1, 1, 5, 929, 0, 6, 1]
[0, 8, 18, 3, 5, 0, 0, 974, 2, 18]
[4, 4, 4, 8, 9, 3, 7, 2, 927, 6]
[5, 8, 1, 8, 11, 1, 1, 3, 3, 968]
Epoch: 6
Type: Training Data
0.972716666667 correct
Epoch: 6
Type: Test Data
0.9631 correct
[969, 0, 0, 1, 0, 3, 3, 1, 2, 1]
[0, 1121, 1, 4, 0, 1, 3, 0, 5, 0]
[4, 1, 986, 9, 4, 0, 9, 7, 10, 2]
[0, 0, 5, 979, 0, 10, 0, 4, 6, 6]
[1, 1, 3, 0, 930, 0, 10, 1, 2, 34]
[5, 1, 0, 15, 1, 841, 8, 1, 13, 7]
[10, 3, 3, 1, 1, 4, 930, 0, 5, 1]
[0, 8, 16, 4, 4, 0, 0, 978, 2, 16]
[4, 4, 4, 6, 9, 4, 7, 2, 928, 6]
[5, 7, 1, 8, 10, 2, 1, 3, 3, 969]
Epoch: 7
Type: Training Data
0.97405 correct
Epoch: 7
Type: Test Data
0.9644 correct
[970, 0, 0, 1, 0, 3, 2, 1, 2, 1]
[0, 1121, 1, 4, 0, 1, 3, 0, 5, 0]
[3, 1, 993, 7, 3, 0, 6, 7, 10, 2]
[0, 0, 4, 978, 0, 10, 0, 5, 6, 7]
[1, 1, 2, 0, 930, 0, 11, 1, 2, 34]
[4, 1, 0, 14, 2, 841, 8, 1, 14, 7]
[10, 3, 3, 1, 1, 4, 931, 0, 4, 1]
[0, 8, 15, 3, 4, 0, 0, 981, 2, 15]
[5, 4, 4, 4, 8, 4, 7, 3, 929, 6]
[6, 7, 1, 8, 8, 2, 1, 3, 3, 970]
Epoch: 8
Type: Training Data
0.97475 correct
Epoch: 8
Type: Test Data
0.9645 correct
[970, 0, 0, 1, 0, 3, 2, 1, 2, 1]
[0, 1122, 1, 4, 0, 1, 3, 0, 4, 0]
[3, 1, 996, 6, 3, 0, 6, 6, 9, 2]
[0, 0, 5, 977, 0, 10, 0, 5, 7, 6]
[1, 1, 2, 0, 928, 1, 11, 1, 2, 35]
[4, 1, 0, 16, 3, 839, 9, 1, 12, 7]
[11, 3, 3, 1, 2, 4, 930, 0, 4, 0]
[0, 8, 16, 3, 4, 0, 0, 982, 1, 14]
[5, 4, 4, 4, 8, 4, 7, 3, 929, 6]
[6, 7, 0, 7, 8, 3, 1, 3, 2, 972]
Epoch: 9
Type: Training Data
0.9757 correct
Epoch: 9
Type: Test Data
0.9643 correct
[970, 0, 1, 1, 0, 3, 1, 1, 2, 1]
[0, 1123, 1, 4, 0, 1, 3, 0, 3, 0]
[3, 2, 998, 5, 3, 0, 6, 6, 7, 2]
[0, 0, 5, 976, 0, 11, 0, 5, 7, 6]
[1, 1, 2, 0, 928, 1, 11, 1, 2, 35]
[4, 1, 0, 15, 4, 841, 9, 1, 11, 6]
[13, 3, 3, 1, 2, 4, 928, 0, 4, 0]
[0, 8, 16, 3, 4, 0, 0, 980, 2, 15]
[6, 4, 4, 3, 7, 4, 7, 4, 928, 7]
[6, 7, 0, 7, 9, 3, 1, 3, 2, 971]
Epoch: 10
Type: Training Data
0.976916666667 correct
Epoch: 10
Type: Test Data
0.9641 correct
[970, 0, 1, 1, 0, 3, 1, 1, 2, 1]
[0, 1121, 1, 4, 0, 1, 3, 1, 4, 0]
[2, 1, 1001, 5, 3, 0, 6, 6, 6, 2]
[0, 0, 5, 978, 0, 10, 0, 4, 7, 6]
[1, 0, 2, 0, 928, 1, 11, 1, 2, 36]
[5, 1, 0, 15, 4, 839, 9, 1, 10, 8]
[13, 3, 4, 1, 2, 4, 927, 0, 4, 0]
[0, 10, 16, 3, 4, 0, 0, 977, 1, 17]
[6, 3, 3, 3, 7, 4, 7, 4, 930, 7]
[6, 6, 0, 9, 8, 3, 1, 4, 2, 970]
Epoch: 11
Type: Training Data
0.977383333333 correct
Epoch: 11
Type: Test Data
0.9639 correct
[970, 1, 1, 1, 0, 3, 1, 1, 1, 1]
[0, 1121, 1, 4, 0, 1, 3, 1, 4, 0]
[2, 1, 1002, 5, 3, 0, 5, 7, 5, 2]
[0, 0, 5, 978, 0, 10, 0, 4, 7, 6]
[1, 0, 3, 0, 924, 1, 11, 0, 2, 40]
[5, 1, 0, 15, 4, 838, 9, 1, 11, 8]
[12, 3, 4, 1, 2, 4, 928, 0, 4, 0]
[0, 8, 16, 3, 3, 0, 0, 978, 1, 19]
[6, 1, 3, 3, 7, 5, 6, 4, 932, 7]
[6, 7, 0, 9, 8, 4, 1, 4, 2, 968]
Epoch: 12
Type: Training Data
0.978016666667 correct
Epoch: 12
Type: Test Data
0.9637 correct
[970, 0, 1, 1, 0, 3, 1, 1, 2, 1]
[0, 1121, 2, 3, 0, 1, 3, 1, 4, 0]
[2, 1, 1002, 5, 3, 0, 5, 7, 5, 2]
[0, 0, 5, 976, 0, 9, 0, 4, 8, 8]
[1, 0, 3, 0, 924, 1, 11, 0, 2, 40]
[6, 1, 0, 14, 4, 838, 9, 1, 11, 8]
[12, 3, 4, 1, 2, 5, 927, 0, 4, 0]
[0, 8, 16, 3, 3, 0, 0, 978, 1, 19]
[6, 1, 3, 3, 7, 5, 7, 4, 931, 7]
[6, 7, 0, 9, 7, 4, 1, 4, 1, 970]
Epoch: 13
Type: Training Data
0.978616666667 correct
Epoch: 13
Type: Test Data
0.9643 correct
[970, 0, 1, 1, 0, 3, 1, 1, 2, 1]
[0, 1121, 2, 3, 0, 1, 3, 1, 4, 0]
[2, 1, 1003, 4, 3, 0, 5, 7, 5, 2]
[0, 0, 5, 974, 0, 11, 0, 4, 8, 8]
[1, 0, 3, 0, 924, 1, 11, 0, 2, 40]
[6, 1, 0, 13, 4, 841, 8, 1, 10, 8]
[12, 3, 4, 1, 2, 5, 927, 0, 4, 0]
[0, 7, 16, 3, 4, 0, 0, 978, 1, 19]
[6, 1, 2, 3, 6, 6, 7, 4, 932, 7]
[5, 7, 0, 7, 7, 4, 1, 4, 1, 973]
Epoch: 14
Type: Training Data
0.979133333333 correct
Epoch: 14
Type: Test Data
0.9642 correct
[970, 0, 1, 1, 0, 3, 1, 1, 2, 1]
[0, 1121, 2, 3, 0, 1, 3, 1, 4, 0]
[2, 1, 1004, 4, 3, 0, 5, 7, 4, 2]
[0, 0, 5, 974, 0, 11, 0, 4, 8, 8]
[1, 0, 3, 0, 922, 1, 11, 0, 2, 42]
[6, 1, 0, 13, 4, 841, 7, 1, 11, 8]
[12, 3, 4, 1, 2, 6, 926, 0, 4, 0]
[0, 7, 15, 4, 3, 0, 0, 981, 2, 16]
[6, 1, 3, 3, 6, 6, 8, 4, 930, 7]
[5, 7, 0, 7, 7, 4, 1, 4, 1, 973]
Epoch: 15
Type: Training Data
0.97965 correct
Epoch: 15
Type: Test Data
0.9644 correct
[970, 0, 1, 1, 0, 3, 1, 1, 2, 1]
[0, 1121, 2, 3, 0, 1, 3, 1, 4, 0]
[2, 1, 1003, 3, 3, 0, 5, 7, 6, 2]
[0, 0, 5, 973, 0, 11, 0, 4, 8, 9]
[1, 0, 4, 0, 921, 1, 11, 0, 2, 42]
[6, 1, 0, 12, 4, 843, 7, 1, 11, 7]
[12, 3, 4, 1, 2, 6, 926, 0, 4, 0]
[0, 7, 15, 4, 3, 0, 0, 982, 2, 15]
[6, 1, 3, 3, 7, 6, 8, 3, 931, 6]
[5, 6, 0, 7, 7, 3, 1, 5, 1, 974]
Epoch: 16
Type: Training Data
0.980133333333 correct
Epoch: 16
Type: Test Data
0.9645 correct
[969, 0, 1, 1, 0, 3, 2, 1, 2, 1]
[0, 1121, 2, 3, 0, 1, 3, 1, 4, 0]
[2, 2, 1005, 3, 3, 0, 4, 6, 5, 2]
[0, 0, 5, 972, 0, 12, 0, 4, 8, 9]
[1, 0, 4, 0, 922, 1, 11, 0, 2, 41]
[6, 1, 0, 12, 4, 843, 7, 1, 11, 7]
[12, 3, 4, 1, 2, 6, 926, 0, 4, 0]
[0, 7, 16, 3, 3, 0, 0, 982, 3, 14]
[6, 1, 3, 3, 8, 6, 8, 3, 930, 6]
[5, 6, 0, 6, 7, 3, 1, 5, 1, 975]
Epoch: 17
Type: Training Data
0.98045 correct
Epoch: 17
Type: Test Data
0.9651 correct
[969, 0, 1, 1, 0, 3, 2, 1, 2, 1]
[0, 1121, 2, 3, 0, 1, 3, 1, 4, 0]
[2, 2, 1006, 3, 3, 0, 4, 6, 4, 2]
[0, 0, 5, 973, 0, 12, 0, 4, 8, 8]
[1, 0, 4, 0, 922, 0, 12, 0, 2, 41]
[5, 1, 0, 9, 4, 848, 7, 1, 10, 7]
[12, 3, 3, 1, 2, 6, 926, 0, 5, 0]
[0, 7, 15, 3, 3, 0, 0, 982, 4, 14]
[6, 1, 3, 3, 8, 6, 8, 3, 930, 6]
[5, 6, 0, 6, 7, 3, 1, 5, 2, 974]
Epoch: 18
Type: Training Data
0.981033333333 correct
Epoch: 18
Type: Test Data
0.9647 correct
[969, 0, 1, 1, 0, 3, 2, 1, 2, 1]
[0, 1121, 2, 3, 0, 1, 3, 1, 4, 0]
[2, 2, 1004, 3, 3, 0, 4, 7, 5, 2]
[0, 0, 5, 973, 0, 12, 0, 4, 8, 8]
[1, 0, 4, 0, 922, 0, 12, 0, 2, 41]
[5, 1, 0, 9, 4, 848, 7, 1, 10, 7]
[12, 3, 3, 1, 2, 6, 926, 0, 5, 0]
[0, 7, 15, 3, 3, 0, 0, 982, 4, 14]
[6, 1, 4, 3, 8, 6, 9, 3, 928, 6]
[5, 6, 0, 6, 7, 3, 1, 5, 2, 974]
Epoch: 19
Type: Training Data
0.9814 correct
Epoch: 19
Type: Test Data
0.9647 correct
[969, 0, 1, 1, 0, 3, 2, 1, 2, 1]
[0, 1120, 3, 3, 0, 1, 3, 1, 4, 0]
[2, 2, 1003, 3, 3, 0, 5, 7, 5, 2]
[0, 0, 5, 974, 0, 12, 0, 4, 8, 7]
[1, 0, 4, 0, 923, 0, 12, 0, 2, 40]
[5, 1, 0, 9, 4, 849, 7, 1, 9, 7]
[12, 3, 3, 1, 2, 7, 926, 0, 4, 0]
[0, 7, 15, 3, 3, 0, 0, 982, 4, 14]
[6, 1, 5, 3, 8, 6, 9, 3, 928, 5]
[5, 6, 0, 6, 7, 3, 1, 5, 3, 973]
Epoch: 20
Type: Training Data
0.981766666667 correct
Epoch: 20
Type: Test Data
0.9645 correct
[968, 0, 1, 1, 0, 3, 3, 1, 2, 1]
[0, 1120, 3, 3, 0, 1, 3, 1, 4, 0]
[2, 2, 1003, 2, 3, 0, 5, 8, 5, 2]
[0, 0, 6, 972, 0, 13, 0, 4, 8, 7]
[1, 0, 4, 0, 924, 0, 12, 0, 2, 39]
[5, 1, 0, 9, 4, 850, 7, 1, 8, 7]
[11, 3, 3, 1, 2, 6, 928, 0, 4, 0]
[0, 7, 16, 3, 4, 0, 0, 981, 3, 14]
[6, 1, 5, 4, 8, 6, 9, 3, 927, 5]
[5, 6, 0, 6, 8, 3, 1, 5, 3, 972]
Epoch: 21
Type: Training Data
0.982366666667 correct
Epoch: 21
Type: Test Data
0.9645 correct
[968, 1, 1, 1, 0, 3, 3, 1, 1, 1]
[0, 1119, 3, 3, 0, 1, 3, 1, 5, 0]
[1, 2, 1004, 2, 3, 0, 5, 8, 5, 2]
[0, 0, 6, 971, 0, 13, 0, 4, 9, 7]
[1, 0, 4, 0, 927, 0, 11, 0, 2, 37]
[5, 1, 0, 9, 4, 850, 7, 1, 8, 7]
[11, 3, 3, 1, 2, 6, 928, 0, 4, 0]
[0, 6, 16, 3, 4, 0, 0, 981, 3, 15]
[6, 2, 5, 4, 7, 6, 9, 3, 927, 5]
[5, 7, 0, 6, 8, 3, 1, 5, 4, 970]
Epoch: 22
Type: Training Data
0.982683333333 correct
Epoch: 22
Type: Test Data
0.9643 correct
[968, 1, 1, 1, 0, 3, 3, 1, 1, 1]
[0, 1119, 3, 3, 0, 1, 3, 1, 5, 0]
[1, 2, 1004, 2, 3, 0, 5, 8, 5, 2]
[0, 0, 6, 968, 0, 16, 0, 4, 9, 7]
[1, 0, 4, 0, 926, 0, 11, 0, 2, 38]
[5, 1, 0, 9, 4, 849, 7, 1, 8, 8]
[10, 3, 3, 1, 2, 6, 929, 0, 4, 0]
[0, 6, 15, 2, 4, 0, 0, 982, 4, 15]
[6, 2, 5, 4, 7, 6, 8, 3, 928, 5]
[5, 7, 0, 6, 8, 3, 1, 5, 4, 970]
Epoch: 23
Type: Training Data
0.982983333333 correct
Epoch: 23
Type: Test Data
0.9639 correct
[968, 1, 1, 1, 0, 3, 3, 1, 1, 1]
[0, 1119, 3, 3, 0, 1, 3, 1, 5, 0]
[1, 2, 1004, 2, 3, 0, 5, 8, 5, 2]
[0, 0, 7, 966, 0, 16, 0, 4, 10, 7]
[1, 0, 4, 0, 926, 0, 11, 0, 2, 38]
[5, 1, 0, 9, 4, 848, 8, 1, 8, 8]
[10, 3, 2, 1, 2, 6, 930, 0, 4, 0]
[0, 6, 15, 2, 4, 0, 0, 981, 4, 16]
[6, 2, 5, 4, 7, 6, 8, 3, 928, 5]
[5, 7, 0, 6, 9, 3, 1, 5, 4, 969]
Epoch: 24
Type: Training Data
0.983333333333 correct
Epoch: 24
Type: Test Data
0.9643 correct
[968, 1, 1, 1, 0, 3, 3, 1, 1, 1]
[0, 1120, 3, 3, 0, 1, 3, 1, 4, 0]
[2, 2, 1006, 2, 3, 0, 3, 8, 4, 2]
[0, 0, 7, 966, 0, 16, 0, 4, 10, 7]
[1, 0, 4, 0, 926, 0, 11, 0, 2, 38]
[5, 1, 0, 10, 3, 848, 8, 1, 8, 8]
[10, 3, 2, 1, 2, 6, 930, 0, 4, 0]
[0, 6, 15, 2, 4, 0, 0, 981, 4, 16]
[6, 2, 5, 4, 7, 6, 8, 3, 928, 5]
[5, 7, 0, 5, 9, 3, 1, 5, 4, 970]
Epoch: 25
Type: Training Data
0.9837 correct
Epoch: 25
Type: Test Data
0.9643 correct
[968, 1, 1, 1, 0, 2, 3, 1, 2, 1]
[0, 1120, 3, 3, 0, 1, 3, 1, 4, 0]
[3, 2, 1005, 2, 3, 0, 3, 8, 4, 2]
[0, 0, 7, 966, 0, 16, 0, 4, 10, 7]
[1, 0, 4, 0, 928, 0, 11, 0, 2, 36]
[5, 1, 1, 10, 3, 847, 8, 1, 8, 8]
[10, 3, 2, 1, 2, 6, 930, 0, 4, 0]
[0, 5, 16, 2, 4, 0, 0, 981, 4, 16]
[6, 2, 5, 4, 7, 6, 8, 3, 928, 5]
[5, 7, 0, 5, 9, 3, 1, 5, 4, 970]
Epoch: 26
Type: Training Data
0.98405 correct
Epoch: 26
Type: Test Data
0.9641 correct
[969, 1, 1, 1, 0, 2, 3, 1, 2, 0]
[0, 1120, 3, 3, 0, 1, 3, 1, 4, 0]
[3, 3, 1001, 3, 3, 0, 3, 10, 4, 2]
[0, 0, 7, 966, 0, 16, 0, 4, 10, 7]
[1, 0, 4, 0, 927, 0, 11, 0, 2, 37]
[5, 1, 1, 10, 3, 847, 8, 1, 8, 8]
[10, 3, 2, 1, 2, 6, 930, 0, 4, 0]
[0, 5, 16, 2, 4, 0, 0, 981, 4, 16]
[6, 2, 5, 4, 7, 5, 7, 4, 929, 5]
[4, 7, 0, 5, 9, 3, 1, 5, 4, 971]
Epoch: 27
Type: Training Data
0.984233333333 correct
Epoch: 27
Type: Test Data
0.9643 correct
[969, 1, 1, 1, 0, 2, 3, 1, 2, 0]
[0, 1120, 3, 3, 0, 1, 3, 1, 4, 0]
[3, 3, 1001, 3, 3, 0, 3, 10, 4, 2]
[0, 0, 7, 966, 0, 17, 0, 4, 10, 6]
[1, 0, 4, 0, 927, 0, 11, 0, 2, 37]
[5, 1, 0, 10, 2, 849, 8, 1, 7, 9]
[10, 3, 2, 1, 2, 6, 930, 0, 4, 0]
[0, 5, 17, 2, 4, 0, 0, 980, 4, 16]
[6, 2, 5, 4, 7, 5, 7, 4, 929, 5]
[4, 7, 0, 4, 9, 3, 1, 5, 4, 972]
Epoch: 28
Type: Training Data
0.98445 correct
Epoch: 28
Type: Test Data
0.9642 correct
[969, 1, 1, 2, 0, 2, 2, 1, 2, 0]
[0, 1120, 3, 3, 0, 1, 3, 1, 4, 0]
[3, 3, 1001, 3, 3, 0, 3, 10, 4, 2]
[0, 0, 8, 964, 0, 17, 0, 4, 10, 7]
[1, 0, 4, 0, 928, 0, 11, 0, 2, 36]
[5, 1, 0, 10, 2, 849, 8, 1, 7, 9]
[10, 3, 2, 1, 2, 6, 930, 0, 4, 0]
[0, 5, 17, 2, 4, 0, 0, 980, 3, 17]
[5, 2, 5, 5, 7, 5, 7, 4, 929, 5]
[4, 7, 0, 4, 9, 3, 1, 5, 4, 972]
Epoch: 29
Type: Training Data
0.984716666667 correct
Epoch: 29
Type: Test Data
0.9644 correct
[969, 1, 1, 2, 0, 2, 2, 1, 2, 0]
[0, 1120, 3, 3, 0, 1, 3, 1, 4, 0]
[3, 3, 1000, 4, 3, 0, 3, 10, 4, 2]
[0, 0, 8, 964, 0, 17, 0, 4, 10, 7]
[1, 0, 3, 0, 930, 0, 11, 0, 2, 35]
[5, 1, 0, 10, 2, 850, 7, 1, 7, 9]
[10, 3, 2, 1, 2, 6, 930, 0, 4, 0]
[0, 5, 17, 2, 4, 0, 0, 980, 3, 17]
[5, 2, 5, 5, 7, 5, 7, 4, 929, 5]
[4, 7, 0, 4, 9, 3, 1, 5, 4, 972]
Epoch: 30
Type: Training Data
0.984983333333 correct
Epoch: 30
Type: Test Data
0.9643 correct
[969, 1, 1, 2, 0, 2, 2, 1, 2, 0]
[0, 1120, 3, 3, 0, 1, 3, 1, 4, 0]
[4, 3, 999, 4, 3, 0, 3, 10, 4, 2]
[0, 0, 8, 963, 0, 18, 0, 4, 10, 7]
[1, 0, 3, 0, 931, 0, 11, 0, 2, 34]
[5, 1, 0, 10, 2, 850, 7, 1, 7, 9]
[10, 3, 2, 1, 2, 6, 930, 0, 4, 0]
[0, 5, 18, 2, 4, 0, 0, 980, 2, 17]
[5, 2, 5, 5, 7, 5, 7, 4, 929, 5]
[4, 7, 0, 4, 9, 3, 1, 5, 4, 972]
Epoch: 31
Type: Training Data
0.985033333333 correct
Epoch: 31
Type: Test Data
0.9642 correct
[969, 1, 1, 2, 0, 2, 2, 1, 2, 0]
[0, 1120, 3, 3, 0, 1, 3, 1, 4, 0]
[4, 3, 999, 4, 3, 0, 3, 10, 4, 2]
[0, 0, 8, 962, 0, 18, 0, 5, 10, 7]
[1, 0, 3, 0, 931, 0, 11, 0, 2, 34]
[5, 0, 0, 10, 2, 850, 7, 2, 7, 9]
[10, 3, 2, 1, 2, 6, 930, 0, 4, 0]
[0, 5, 18, 1, 4, 0, 0, 980, 3, 17]
[5, 2, 5, 5, 7, 5, 7, 4, 929, 5]
[4, 7, 0, 4, 9, 3, 1, 5, 4, 972]
Epoch: 32
Type: Training Data
0.985133333333 correct
Epoch: 32
Type: Test Data
0.9645 correct
[969, 1, 1, 2, 0, 2, 2, 1, 2, 0]
[0, 1120, 3, 3, 0, 1, 3, 1, 4, 0]
[4, 3, 999, 4, 3, 0, 3, 10, 4, 2]
[0, 0, 8, 962, 0, 17, 0, 5, 10, 8]
[1, 0, 3, 0, 932, 0, 11, 0, 2, 33]
[5, 0, 0, 10, 2, 851, 7, 2, 7, 8]
[10, 3, 2, 1, 2, 6, 930, 0, 4, 0]
[0, 5, 18, 1, 4, 0, 0, 980, 3, 17]
[5, 2, 5, 5, 7, 5, 6, 4, 930, 5]
[4, 7, 0, 4, 9, 3, 1, 5, 4, 972]
Epoch: 33
Type: Training Data
0.985233333333 correct
Epoch: 33
Type: Test Data
0.9645 correct
[969, 1, 1, 2, 0, 2, 2, 1, 2, 0]
[0, 1120, 3, 3, 0, 1, 3, 1, 4, 0]
[4, 3, 999, 4, 3, 0, 3, 10, 4, 2]
[0, 0, 9, 961, 0, 17, 0, 5, 10, 8]
[1, 0, 3, 0, 933, 0, 10, 0, 2, 33]
[5, 0, 0, 10, 2, 851, 7, 2, 7, 8]
[10, 3, 2, 1, 2, 6, 930, 0, 4, 0]
[0, 5, 18, 1, 4, 0, 0, 980, 3, 17]
[5, 2, 5, 5, 7, 4, 6, 4, 931, 5]
[4, 7, 0, 4, 9, 3, 1, 6, 4, 971]
Epoch: 34
Type: Training Data
0.985466666667 correct
Epoch: 34
Type: Test Data
0.9646 correct
[969, 1, 1, 2, 0, 2, 2, 1, 2, 0]
[0, 1120, 3, 3, 0, 1, 3, 1, 4, 0]
[4, 3, 999, 4, 3, 0, 3, 10, 4, 2]
[0, 0, 9, 961, 0, 16, 0, 5, 10, 9]
[1, 0, 3, 0, 933, 0, 10, 0, 2, 33]
[5, 0, 0, 10, 2, 851, 5, 2, 8, 9]
[10, 3, 2, 1, 2, 6, 930, 0, 4, 0]
[0, 5, 18, 1, 3, 0, 0, 981, 3, 17]
[5, 2, 5, 5, 7, 4, 6, 4, 931, 5]
[4, 7, 0, 4, 9, 3, 1, 6, 4, 971]
Epoch: 35
Type: Training Data
0.985583333333 correct
Epoch: 35
Type: Test Data
0.9646 correct
[969, 1, 1, 2, 0, 2, 2, 1, 2, 0]
[0, 1120, 3, 3, 0, 1, 3, 1, 4, 0]
[4, 3, 999, 4, 3, 0, 3, 10, 4, 2]
[0, 0, 9, 961, 0, 16, 0, 5, 10, 9]
[1, 0, 3, 0, 933, 0, 10, 0, 2, 33]
[5, 0, 0, 10, 3, 851, 6, 2, 8, 7]
[10, 3, 2, 1, 2, 6, 930, 0, 4, 0]
[0, 5, 19, 1, 3, 0, 0, 981, 3, 16]
[5, 2, 5, 5, 7, 4, 6, 4, 931, 5]
[4, 7, 0, 4, 9, 3, 1, 6, 4, 971]
Epoch: 36
Type: Training Data
0.985816666667 correct
Epoch: 36
Type: Test Data
0.9645 correct
[969, 1, 1, 2, 0, 2, 2, 1, 2, 0]
[0, 1120, 3, 3, 0, 1, 3, 1, 4, 0]
[4, 4, 1001, 3, 3, 0, 3, 9, 4, 1]
[0, 0, 9, 961, 0, 16, 0, 5, 10, 9]
[1, 0, 3, 0, 932, 0, 10, 0, 2, 34]
[5, 0, 0, 10, 3, 851, 6, 2, 8, 7]
[10, 3, 2, 1, 2, 6, 930, 0, 4, 0]
[0, 5, 19, 1, 3, 0, 0, 981, 3, 16]
[5, 2, 5, 5, 6, 4, 7, 4, 931, 5]
[4, 7, 0, 4, 9, 3, 1, 7, 5, 969]
Epoch: 37
Type: Training Data
0.985933333333 correct
Epoch: 37
Type: Test Data
0.9643 correct
[968, 1, 1, 2, 0, 2, 3, 1, 2, 0]
[0, 1120, 3, 3, 0, 1, 3, 1, 4, 0]
[3, 4, 1001, 3, 3, 0, 3, 10, 4, 1]
[0, 0, 9, 961, 0, 16, 0, 5, 10, 9]
[1, 0, 3, 0, 932, 0, 10, 0, 2, 34]
[5, 0, 0, 10, 3, 851, 6, 2, 8, 7]
[10, 3, 2, 1, 2, 6, 930, 0, 4, 0]
[0, 5, 20, 1, 3, 0, 0, 980, 3, 16]
[5, 2, 5, 5, 6, 4, 7, 4, 931, 5]
[4, 7, 0, 4, 9, 3, 1, 7, 5, 969]
Epoch: 38
Type: Training Data
0.986033333333 correct
Epoch: 38
Type: Test Data
0.9642 correct
[968, 1, 1, 2, 0, 2, 3, 1, 2, 0]
[0, 1120, 3, 3, 0, 1, 3, 1, 4, 0]
[3, 4, 1001, 3, 3, 0, 3, 10, 4, 1]
[0, 0, 9, 960, 0, 16, 0, 5, 10, 10]
[1, 0, 3, 0, 933, 0, 10, 0, 2, 33]
[5, 0, 0, 11, 3, 850, 6, 2, 8, 7]
[10, 3, 2, 1, 2, 6, 930, 0, 4, 0]
[0, 5, 20, 1, 3, 0, 0, 979, 4, 16]
[5, 2, 5, 5, 6, 3, 7, 4, 932, 5]
[4, 7, 0, 4, 9, 3, 1, 7, 5, 969]
Epoch: 39
Type: Training Data
0.986233333333 correct
Epoch: 39
Type: Test Data
0.9642 correct
[968, 1, 1, 2, 0, 2, 3, 1, 2, 0]
[0, 1120, 3, 3, 0, 1, 3, 1, 4, 0]
[3, 4, 1001, 3, 3, 0, 3, 10, 4, 1]
[0, 0, 9, 960, 0, 16, 0, 5, 10, 10]
[1, 0, 3, 0, 933, 0, 10, 0, 2, 33]
[4, 0, 0, 11, 3, 851, 6, 2, 8, 7]
[10, 3, 2, 1, 2, 6, 930, 0, 4, 0]
[0, 5, 20, 1, 3, 0, 0, 978, 4, 17]
[5, 2, 5, 5, 6, 3, 7, 4, 932, 5]
[4, 7, 0, 4, 9, 3, 1, 7, 5, 969]
Epoch: 40
Type: Training Data
0.986433333333 correct
Epoch: 40
Type: Test Data
0.9643 correct
[968, 1, 1, 2, 0, 2, 3, 1, 2, 0]
[0, 1120, 3, 3, 0, 1, 3, 1, 4, 0]
[3, 4, 1001, 3, 3, 0, 3, 9, 4, 2]
[0, 0, 9, 961, 0, 17, 0, 5, 10, 8]
[1, 0, 3, 0, 933, 0, 10, 0, 2, 33]
[4, 0, 0, 11, 3, 851, 6, 2, 8, 7]
[10, 3, 2, 1, 2, 6, 930, 0, 4, 0]
[0, 5, 20, 1, 3, 0, 0, 978, 4, 17]
[5, 2, 5, 5, 6, 3, 7, 4, 932, 5]
[4, 7, 0, 4, 9, 3, 1, 7, 5, 969]
Epoch: 41
Type: Training Data
0.986483333333 correct
Epoch: 41
Type: Test Data
0.9643 correct
[968, 1, 1, 2, 0, 2, 3, 1, 2, 0]
[0, 1120, 3, 3, 0, 1, 3, 1, 4, 0]
[3, 4, 1001, 3, 3, 0, 3, 9, 4, 2]
[0, 0, 9, 960, 0, 16, 0, 5, 12, 8]
[1, 0, 3, 0, 933, 0, 10, 0, 2, 33]
[4, 0, 0, 11, 3, 851, 6, 2, 8, 7]
[10, 3, 2, 1, 2, 6, 930, 0, 4, 0]
[1, 4, 19, 1, 2, 0, 0, 979, 4, 18]
[5, 2, 5, 5, 6, 3, 7, 4, 932, 5]
[4, 7, 0, 4, 9, 3, 1, 7, 5, 969]
Epoch: 42
Type: Training Data
0.986516666667 correct
Epoch: 42
Type: Test Data
0.9642 correct
[968, 1, 1, 2, 0, 2, 3, 1, 2, 0]
[0, 1120, 3, 3, 0, 1, 3, 1, 4, 0]
[3, 4, 1001, 2, 3, 0, 3, 9, 5, 2]
[0, 0, 9, 960, 0, 16, 0, 5, 12, 8]
[1, 0, 3, 1, 932, 0, 10, 0, 2, 33]
[4, 0, 0, 11, 3, 851, 6, 2, 8, 7]
[10, 3, 2, 0, 2, 6, 929, 0, 5, 1]
[1, 4, 19, 1, 2, 0, 0, 979, 4, 18]
[5, 2, 5, 5, 6, 3, 7, 4, 932, 5]
[4, 7, 0, 4, 9, 3, 0, 7, 5, 970]
Epoch: 43
Type: Training Data
0.98665 correct
Epoch: 43
Type: Test Data
0.9644 correct
[968, 1, 1, 2, 0, 2, 3, 1, 2, 0]
[0, 1120, 3, 3, 0, 1, 3, 1, 4, 0]
[3, 4, 1002, 2, 2, 0, 3, 9, 5, 2]
[0, 0, 9, 960, 0, 16, 0, 5, 12, 8]
[1, 0, 3, 1, 932, 0, 10, 0, 2, 33]
[4, 0, 0, 11, 3, 851, 6, 2, 8, 7]
[10, 3, 3, 0, 2, 6, 928, 0, 5, 1]
[1, 4, 19, 1, 2, 0, 0, 981, 4, 16]
[5, 2, 5, 5, 6, 3, 7, 4, 932, 5]
[4, 7, 0, 4, 9, 3, 0, 7, 5, 970]
Epoch: 44
Type: Training Data
0.986766666667 correct
Epoch: 44
Type: Test Data
0.9644 correct
[968, 1, 1, 2, 0, 2, 3, 1, 2, 0]
[0, 1120, 3, 3, 0, 1, 3, 1, 4, 0]
[3, 4, 1002, 2, 2, 0, 3, 9, 5, 2]
[0, 0, 9, 959, 0, 17, 0, 5, 12, 8]
[1, 0, 3, 1, 933, 0, 10, 0, 2, 32]
[4, 0, 0, 11, 3, 851, 6, 2, 8, 7]
[10, 3, 3, 0, 2, 7, 927, 0, 5, 1]
[1, 4, 19, 1, 2, 0, 0, 982, 4, 15]
[5, 2, 5, 5, 6, 3, 7, 4, 932, 5]
[4, 7, 0, 4, 9, 3, 0, 7, 5, 970]
Epoch: 45
Type: Training Data
0.986816666667 correct
Epoch: 45
Type: Test Data
0.9645 correct
[968, 1, 1, 2, 0, 2, 3, 1, 2, 0]
[0, 1121, 3, 3, 0, 1, 3, 1, 3, 0]
[2, 4, 1003, 2, 2, 0, 3, 9, 5, 2]
[0, 0, 9, 959, 0, 17, 0, 5, 12, 8]
[1, 0, 3, 1, 933, 0, 10, 0, 2, 32]
[4, 0, 0, 10, 3, 851, 6, 2, 8, 8]
[10, 3, 3, 0, 2, 7, 927, 0, 5, 1]
[1, 4, 20, 1, 2, 0, 0, 981, 4, 15]
[5, 2, 5, 5, 6, 3, 7, 4, 932, 5]
[4, 7, 0, 4, 9, 3, 0, 7, 5, 970]
Epoch: 46
Type: Training Data
0.986916666667 correct
Epoch: 46
Type: Test Data
0.9645 correct
[968, 1, 1, 2, 0, 2, 3, 1, 2, 0]
[0, 1121, 3, 3, 0, 1, 3, 1, 3, 0]
[2, 4, 1003, 2, 2, 0, 3, 9, 5, 2]
[0, 0, 9, 959, 0, 17, 0, 5, 12, 8]
[1, 0, 3, 1, 933, 0, 10, 0, 2, 32]
[4, 0, 0, 10, 3, 851, 6, 2, 8, 8]
[10, 3, 3, 0, 2, 7, 927, 0, 5, 1]
[1, 4, 20, 1, 2, 0, 0, 981, 4, 15]
[5, 2, 5, 5, 6, 3, 7, 4, 932, 5]
[4, 7, 0, 4, 9, 3, 0, 7, 5, 970]
Epoch: 47
Type: Training Data
0.98705 correct
Epoch: 47
Type: Test Data
0.9643 correct
[967, 1, 1, 2, 0, 2, 4, 1, 2, 0]
[0, 1121, 3, 3, 0, 1, 3, 1, 3, 0]
[2, 4, 1003, 2, 2, 0, 3, 9, 5, 2]
[0, 0, 9, 959, 0, 17, 0, 5, 12, 8]
[1, 0, 3, 1, 933, 0, 11, 0, 2, 31]
[4, 0, 0, 10, 3, 851, 6, 2, 8, 8]
[10, 3, 3, 1, 2, 7, 926, 0, 5, 1]
[1, 4, 20, 1, 2, 0, 0, 981, 4, 15]
[5, 2, 5, 5, 6, 3, 7, 4, 932, 5]
[4, 7, 0, 4, 9, 3, 0, 7, 5, 970]
Epoch: 48
Type: Training Data
0.9872 correct
Epoch: 48
Type: Test Data
0.9645 correct
[967, 1, 1, 2, 0, 2, 4, 1, 2, 0]
[0, 1121, 3, 3, 0, 1, 3, 1, 3, 0]
[2, 4, 1003, 2, 2, 0, 3, 9, 5, 2]
[0, 0, 9, 959, 0, 17, 0, 5, 12, 8]
[1, 0, 4, 1, 933, 0, 10, 0, 2, 31]
[4, 0, 0, 9, 3, 852, 6, 2, 8, 8]
[10, 3, 3, 1, 2, 7, 926, 0, 5, 1]
[1, 4, 20, 1, 2, 0, 0, 982, 4, 14]
[5, 2, 5, 5, 6, 3, 7, 4, 932, 5]
[4, 7, 0, 4, 9, 3, 0, 7, 5, 970]
Epoch: 49
Type: Training Data
0.98735 correct
Epoch: 49
Type: Test Data
0.9644 correct
[967, 1, 1, 2, 0, 2, 4, 1, 2, 0]
[0, 1121, 3, 3, 0, 1, 3, 1, 3, 0]
[2, 4, 1003, 2, 2, 0, 3, 9, 5, 2]
[0, 0, 9, 959, 0, 17, 0, 5, 12, 8]
[1, 0, 4, 1, 933, 0, 10, 0, 2, 31]
[4, 0, 0, 9, 3, 852, 6, 2, 8, 8]
[10, 3, 3, 1, 2, 7, 926, 0, 5, 1]
[1, 4, 20, 1, 2, 0, 0, 982, 4, 14]
[5, 2, 6, 5, 6, 3, 7, 4, 931, 5]
[4, 7, 0, 4, 9, 3, 0, 7, 5, 970]
0.102183333333
0.939783333333
0.956633333333
0.9637
0.967716666667
0.9708
0.972716666667
0.97405
0.97475
0.9757
0.976916666667
0.977383333333
0.978016666667
0.978616666667
0.979133333333
0.97965
0.980133333333
0.98045
0.981033333333
0.9814
0.981766666667
0.982366666667
0.982683333333
0.982983333333
0.983333333333
0.9837
0.98405
0.984233333333
0.98445
0.984716666667
0.984983333333
0.985033333333
0.985133333333
0.985233333333
0.985466666667
0.985583333333
0.985816666667
0.985933333333
0.986033333333
0.986233333333
0.986433333333
0.986483333333
0.986516666667
0.98665
0.986766666667
0.986816666667
0.986916666667
0.98705
0.9872
0.98735

0.101
0.9384
0.953
0.9586
0.9613
0.9626
0.9631
0.9644
0.9645
0.9643
0.9641
0.9639
0.9637
0.9643
0.9642
0.9644
0.9645
0.9651
0.9647
0.9647
0.9645
0.9645
0.9643
0.9639
0.9643
0.9643
0.9641
0.9643
0.9642
0.9644
0.9643
0.9642
0.9645
0.9645
0.9646
0.9646
0.9645
0.9643
0.9642
0.9642
0.9643
0.9643
0.9642
0.9644
0.9644
0.9645
0.9645
0.9643
0.9645
0.9644
Nodes: 100
Epoch: 0
Type: Training Data
0.0987166666667 correct
Epoch: 0
Type: Test Data
0.098 correct
[980, 0, 0, 0, 0, 0, 0, 0, 0, 0]
[1135, 0, 0, 0, 0, 0, 0, 0, 0, 0]
[1032, 0, 0, 0, 0, 0, 0, 0, 0, 0]
[1010, 0, 0, 0, 0, 0, 0, 0, 0, 0]
[982, 0, 0, 0, 0, 0, 0, 0, 0, 0]
[892, 0, 0, 0, 0, 0, 0, 0, 0, 0]
[958, 0, 0, 0, 0, 0, 0, 0, 0, 0]
[1028, 0, 0, 0, 0, 0, 0, 0, 0, 0]
[974, 0, 0, 0, 0, 0, 0, 0, 0, 0]
[1009, 0, 0, 0, 0, 0, 0, 0, 0, 0]
Epoch: 1
Type: Training Data
0.94715 correct
Epoch: 1
Type: Test Data
0.946 correct
[967, 0, 1, 1, 0, 1, 7, 1, 2, 0]
[0, 1115, 3, 2, 1, 0, 5, 0, 9, 0]
[11, 1, 955, 13, 7, 1, 12, 8, 20, 4]
[0, 0, 6, 968, 0, 7, 3, 4, 12, 10]
[1, 0, 3, 1, 910, 0, 13, 0, 2, 52]
[9, 2, 2, 23, 4, 808, 19, 3, 12, 10]
[10, 3, 0, 0, 3, 4, 936, 0, 2, 0]
[3, 18, 15, 7, 4, 0, 0, 936, 2, 43]
[4, 2, 3, 27, 9, 4, 7, 3, 906, 9]
[7, 7, 1, 8, 12, 3, 1, 3, 8, 959]
Epoch: 2
Type: Training Data
0.96625 correct
Epoch: 2
Type: Test Data
0.9637 correct
[971, 1, 1, 0, 0, 1, 3, 1, 2, 0]
[0, 1121, 2, 2, 1, 0, 3, 0, 6, 0]
[9, 0, 984, 10, 4, 0, 4, 7, 12, 2]
[1, 0, 2, 979, 0, 6, 0, 4, 7, 11]
[1, 0, 2, 0, 948, 0, 7, 0, 2, 22]
[7, 2, 1, 12, 2, 839, 13, 3, 7, 6]
[8, 3, 0, 1, 3, 3, 938, 0, 2, 0]
[2, 17, 13, 3, 3, 0, 0, 965, 1, 24]
[4, 2, 1, 10, 6, 3, 5, 4, 932, 7]
[5, 8, 1, 9, 13, 3, 1, 4, 5, 960]
Epoch: 3
Type: Training Data
0.97395 correct
Epoch: 3
Type: Test Data
0.9687 correct
[972, 1, 1, 0, 0, 0, 3, 1, 2, 0]
[0, 1125, 2, 1, 1, 1, 2, 0, 3, 0]
[6, 0, 993, 8, 4, 0, 2, 7, 9, 3]
[1, 0, 2, 983, 1, 5, 0, 4, 5, 9]
[1, 0, 3, 0, 952, 0, 5, 0, 2, 19]
[5, 2, 1, 10, 2, 847, 10, 2, 7, 6]
[6, 3, 0, 1, 3, 5, 936, 0, 4, 0]
[3, 14, 10, 3, 2, 0, 0, 974, 2, 20]
[4, 1, 1, 6, 5, 4, 4, 4, 939, 6]
[6, 7, 0, 10, 10, 3, 0, 4, 3, 966]
Epoch: 4
Type: Training Data
0.978016666667 correct
Epoch: 4
Type: Test Data
0.9719 correct
[973, 1, 1, 0, 0, 0, 2, 1, 2, 0]
[0, 1125, 2, 1, 1, 1, 2, 0, 3, 0]
[6, 0, 994, 6, 4, 0, 3, 6, 10, 3]
[1, 0, 1, 986, 1, 6, 0, 5, 5, 5]
[1, 0, 3, 0, 953, 0, 5, 0, 2, 18]
[4, 2, 1, 9, 1, 853, 9, 2, 6, 5]
[5, 3, 0, 1, 3, 5, 937, 0, 4, 0]
[3, 12, 10, 3, 2, 0, 0, 981, 3, 14]
[4, 1, 1, 5, 4, 3, 2, 3, 947, 4]
[5, 7, 0, 8, 9, 3, 1, 5, 1, 970]
Epoch: 5
Type: Training Data
0.98065 correct
Epoch: 5
Type: Test Data
0.9727 correct
[973, 1, 1, 0, 0, 0, 2, 1, 2, 0]
[0, 1125, 1, 2, 1, 1, 2, 0, 3, 0]
[6, 0, 995, 8, 4, 0, 2, 6, 8, 3]
[1, 0, 0, 985, 1, 7, 0, 6, 5, 5]
[1, 0, 3, 0, 953, 0, 4, 0, 2, 19]
[4, 1, 0, 11, 1, 857, 8, 2, 5, 3]
[5, 3, 0, 1, 2, 4, 939, 0, 4, 0]
[2, 10, 10, 3, 2, 0, 0, 984, 3, 14]
[4, 1, 1, 5, 4, 3, 3, 3, 946, 4]
[5, 7, 0, 8, 9, 3, 1, 5, 1, 970]
Epoch: 6
Type: Training Data
0.98235 correct
Epoch: 6
Type: Test Data
0.9736 correct
[973, 1, 1, 0, 0, 0, 2, 1, 2, 0]
[0, 1125, 1, 2, 1, 1, 2, 0, 3, 0]
[6, 0, 997, 6, 4, 0, 2, 6, 8, 3]
[1, 0, 0, 986, 1, 7, 0, 6, 3, 6]
[1, 0, 3, 0, 953, 0, 4, 0, 2, 19]
[4, 0, 0, 12, 1, 859, 7, 2, 4, 3]
[5, 3, 0, 1, 1, 5, 939, 0, 4, 0]
[2, 9, 10, 3, 1, 0, 0, 986, 3, 14]
[5, 1, 1, 4, 4, 3, 3, 3, 946, 4]
[4, 7, 0, 8, 8, 3, 1, 5, 1, 972]
Epoch: 7
Type: Training Data
0.983816666667 correct
Epoch: 7
Type: Test Data
0.975 correct
[973, 1, 1, 0, 0, 0, 2, 1, 2, 0]
[0, 1126, 1, 2, 1, 1, 2, 0, 2, 0]
[6, 0, 1000, 5, 4, 0, 2, 6, 6, 3]
[1, 0, 1, 988, 0, 7, 0, 5, 3, 5]
[1, 0, 3, 0, 956, 0, 3, 0, 1, 18]
[3, 0, 0, 11, 1, 861, 7, 2, 4, 3]
[6, 3, 0, 1, 1, 5, 939, 0, 3, 0]
[2, 8, 10, 3, 2, 0, 0, 989, 3, 11]
[5, 1, 1, 4, 4, 4, 2, 3, 946, 4]
[4, 7, 0, 8, 7, 3, 1, 5, 2, 972]
Epoch: 8
Type: Training Data
0.984833333333 correct
Epoch: 8
Type: Test Data
0.9754 correct
[973, 1, 1, 0, 0, 0, 2, 1, 2, 0]
[0, 1126, 1, 2, 1, 1, 2, 0, 2, 0]
[6, 1, 1001, 4, 4, 0, 2, 5, 6, 3]
[1, 0, 1, 989, 0, 7, 0, 5, 3, 4]
[1, 0, 3, 0, 957, 0, 3, 0, 1, 17]
[3, 0, 0, 11, 1, 861, 7, 2, 4, 3]
[7, 3, 0, 1, 1, 4, 939, 0, 3, 0]
[2, 7, 10, 2, 2, 0, 0, 992, 3, 10]
[4, 1, 2, 4, 4, 4, 3, 3, 944, 5]
[4, 7, 0, 8, 7, 3, 1, 5, 2, 972]
Epoch: 9
Type: Training Data
0.985783333333 correct
Epoch: 9
Type: Test Data
0.9764 correct
[973, 1, 1, 0, 0, 0, 2, 1, 2, 0]
[0, 1127, 1, 2, 0, 1, 2, 0, 2, 0]
[5, 1, 1000, 5, 5, 0, 3, 5, 5, 3]
[1, 0, 1, 988, 0, 7, 0, 6, 3, 4]
[1, 0, 3, 0, 958, 0, 3, 0, 1, 16]
[3, 0, 0, 9, 1, 865, 6, 2, 4, 2]
[7, 3, 0, 1, 1, 4, 939, 0, 3, 0]
[2, 7, 10, 2, 2, 0, 0, 993, 3, 9]
[5, 1, 2, 2, 4, 4, 3, 3, 946, 4]
[5, 5, 0, 6, 7, 3, 1, 5, 2, 975]
Epoch: 10
Type: Training Data
0.98695 correct
Epoch: 10
Type: Test Data
0.9765 correct
[972, 1, 1, 0, 0, 1, 2, 1, 2, 0]
[0, 1127, 1, 2, 0, 1, 2, 0, 2, 0]
[5, 1, 1001, 6, 4, 0, 3, 5, 4, 3]
[1, 0, 1, 990, 0, 6, 0, 6, 3, 3]
[1, 0, 3, 0, 958, 0, 3, 0, 1, 16]
[3, 0, 0, 10, 1, 864, 7, 2, 3, 2]
[7, 3, 0, 1, 1, 4, 939, 0, 3, 0]
[2, 6, 9, 2, 2, 0, 0, 994, 2, 11]
[5, 1, 2, 2, 4, 4, 3, 3, 946, 4]
[5, 5, 0, 7, 7, 2, 1, 5, 3, 974]
Epoch: 11
Type: Training Data
0.987866666667 correct
Epoch: 11
Type: Test Data
0.9766 correct
[972, 1, 1, 0, 0, 1, 2, 1, 2, 0]
[0, 1128, 1, 2, 0, 1, 2, 0, 1, 0]
[5, 2, 1000, 6, 4, 0, 3, 5, 4, 3]
[1, 0, 1, 990, 0, 6, 0, 6, 3, 3]
[1, 0, 3, 0, 958, 0, 3, 0, 1, 16]
[3, 0, 0, 10, 1, 864, 7, 2, 3, 2]
[7, 3, 0, 1, 1, 3, 940, 0, 3, 0]
[2, 6, 9, 1, 2, 0, 0, 994, 3, 11]
[5, 1, 2, 2, 4, 4, 3, 3, 946, 4]
[5, 5, 0, 7, 7, 2, 1, 5, 3, 974]
Epoch: 12
Type: Training Data
0.988583333333 correct
Epoch: 12
Type: Test Data
0.9765 correct
[972, 1, 0, 0, 0, 1, 2, 1, 2, 1]
[0, 1128, 1, 2, 0, 1, 2, 0, 1, 0]
[5, 2, 1000, 6, 4, 0, 3, 5, 4, 3]
[1, 0, 1, 990, 0, 5, 0, 7, 3, 3]
[1, 0, 3, 0, 958, 0, 3, 0, 1, 16]
[3, 0, 0, 10, 1, 864, 7, 2, 3, 2]
[6, 3, 0, 1, 1, 4, 940, 0, 3, 0]
[2, 6, 9, 1, 3, 0, 0, 993, 3, 11]
[4, 1, 2, 3, 4, 4, 3, 3, 946, 4]
[5, 5, 0, 7, 7, 2, 1, 5, 3, 974]
Epoch: 13
Type: Training Data
0.989116666667 correct
Epoch: 13
Type: Test Data
0.9765 correct
[972, 1, 0, 0, 0, 1, 2, 1, 2, 1]
[0, 1128, 1, 2, 0, 1, 2, 0, 1, 0]
[5, 2, 1000, 6, 4, 0, 3, 5, 4, 3]
[1, 0, 1, 991, 0, 5, 0, 6, 3, 3]
[1, 0, 3, 0, 958, 0, 3, 0, 1, 16]
[3, 0, 0, 10, 1, 864, 7, 1, 3, 3]
[6, 3, 0, 1, 2, 4, 938, 0, 4, 0]
[2, 5, 8, 2, 3, 0, 0, 994, 3, 11]
[5, 1, 2, 2, 4, 4, 3, 3, 946, 4]
[5, 5, 0, 7, 7, 2, 1, 5, 3, 974]
Epoch: 14
Type: Training Data
0.98975 correct
Epoch: 14
Type: Test Data
0.9762 correct
[972, 1, 0, 0, 0, 1, 2, 1, 2, 1]
[0, 1128, 1, 2, 0, 1, 2, 0, 1, 0]
[5, 2, 999, 6, 4, 0, 3, 5, 5, 3]
[1, 0, 1, 990, 0, 6, 0, 6, 3, 3]
[1, 0, 3, 0, 958, 0, 3, 0, 1, 16]
[3, 0, 0, 10, 1, 863, 7, 1, 4, 3]
[6, 3, 0, 1, 2, 5, 937, 0, 4, 0]
[2, 5, 8, 2, 3, 0, 0, 994, 3, 11]
[5, 1, 2, 2, 4, 4, 3, 3, 946, 4]
[5, 5, 0, 7, 7, 2, 1, 5, 2, 975]
Epoch: 15
Type: Training Data
0.990316666667 correct
Epoch: 15
Type: Test Data
0.9758 correct
[972, 1, 0, 0, 0, 1, 2, 1, 2, 1]
[0, 1128, 1, 2, 0, 1, 2, 0, 1, 0]
[5, 2, 996, 7, 4, 0, 4, 5, 6, 3]
[1, 0, 1, 989, 0, 6, 0, 6, 3, 4]
[1, 0, 3, 0, 960, 0, 3, 0, 1, 14]
[3, 0, 0, 10, 1, 862, 7, 1, 4, 4]
[6, 3, 0, 1, 2, 5, 937, 0, 4, 0]
[2, 4, 8, 2, 4, 0, 0, 993, 3, 12]
[5, 1, 2, 2, 4, 4, 3, 3, 946, 4]
[5, 5, 0, 7, 7, 2, 1, 5, 2, 975]
Epoch: 16
Type: Training Data
0.990733333333 correct
Epoch: 16
Type: Test Data
0.9764 correct
[972, 1, 0, 0, 0, 1, 2, 1, 2, 1]
[0, 1128, 1, 2, 0, 1, 2, 0, 1, 0]
[5, 2, 996, 7, 4, 0, 4, 5, 6, 3]
[1, 0, 1, 992, 0, 4, 0, 5, 3, 4]
[1, 0, 3, 0, 960, 0, 3, 0, 1, 14]
[3, 0, 0, 10, 1, 862, 7, 1, 4, 4]
[6, 3, 0, 1, 2, 5, 937, 0, 4, 0]
[2, 4, 8, 2, 3, 0, 0, 994, 3, 12]
[5, 1, 2, 2, 4, 4, 3, 3, 946, 4]
[5, 5, 0, 7, 8, 1, 0, 4, 2, 977]
Epoch: 17
Type: Training Data
0.9913 correct
Epoch: 17
Type: Test Data
0.9768 correct
[973, 1, 0, 0, 0, 1, 1, 1, 2, 1]
[0, 1128, 1, 2, 0, 1, 2, 0, 1, 0]
[5, 2, 996, 7, 4, 0, 4, 5, 6, 3]
[1, 0, 1, 994, 0, 4, 0, 3, 3, 4]
[1, 0, 3, 0, 960, 0, 3, 0, 1, 14]
[3, 0, 0, 10, 1, 862, 7, 1, 4, 4]
[6, 3, 0, 1, 2, 5, 937, 0, 4, 0]
[2, 4, 8, 2, 3, 0, 0, 995, 3, 11]
[5, 1, 2, 2, 4, 4, 3, 3, 946, 4]
[5, 5, 0, 7, 9, 1, 0, 4, 1, 977]
Epoch: 18
Type: Training Data
0.9918 correct
Epoch: 18
Type: Test Data
0.9769 correct
[973, 1, 0, 0, 0, 1, 1, 1, 2, 1]
[0, 1128, 1, 2, 0, 1, 2, 0, 1, 0]
[5, 2, 996, 7, 3, 0, 4, 5, 6, 4]
[1, 0, 2, 993, 0, 4, 0, 3, 3, 4]
[1, 0, 3, 0, 960, 0, 3, 0, 1, 14]
[3, 0, 0, 10, 1, 862, 7, 1, 4, 4]
[6, 3, 0, 1, 2, 5, 937, 0, 4, 0]
[2, 3, 8, 2, 3, 0, 0, 996, 3, 11]
[5, 1, 2, 2, 4, 4, 3, 3, 946, 4]
[5, 5, 0, 6, 9, 1, 0, 4, 1, 978]
Epoch: 19
Type: Training Data
0.99215 correct
Epoch: 19
Type: Test Data
0.9766 correct
[973, 1, 0, 0, 0, 1, 1, 1, 2, 1]
[0, 1126, 1, 2, 0, 2, 2, 1, 1, 0]
[5, 2, 995, 7, 3, 0, 4, 4, 8, 4]
[1, 0, 2, 992, 0, 5, 0, 3, 3, 4]
[1, 0, 3, 0, 961, 0, 3, 0, 1, 13]
[3, 0, 0, 10, 1, 863, 6, 1, 4, 4]
[6, 3, 0, 1, 2, 5, 937, 0, 4, 0]
[2, 3, 9, 2, 3, 0, 0, 995, 3, 11]
[5, 2, 2, 2, 4, 4, 3, 3, 946, 3]
[5, 5, 0, 6, 9, 1, 0, 4, 1, 978]
Epoch: 20
Type: Training Data
0.992383333333 correct
Epoch: 20
Type: Test Data
0.9764 correct
[973, 1, 0, 0, 0, 1, 1, 1, 2, 1]
[0, 1126, 1, 2, 0, 2, 2, 1, 1, 0]
[5, 2, 995, 7, 3, 0, 4, 4, 8, 4]
[1, 0, 2, 991, 0, 6, 0, 3, 4, 3]
[1, 0, 3, 0, 961, 0, 3, 0, 1, 13]
[3, 0, 0, 9, 1, 863, 6, 1, 5, 4]
[6, 3, 0, 1, 2, 5, 937, 0, 4, 0]
[2, 3, 9, 2, 3, 0, 0, 995, 2, 12]
[5, 2, 2, 2, 4, 4, 3, 3, 946, 3]
[5, 5, 0, 6, 9, 1, 0, 4, 2, 977]
Epoch: 21
Type: Training Data
0.992683333333 correct
Epoch: 21
Type: Test Data
0.9764 correct
[974, 1, 1, 0, 0, 0, 1, 1, 2, 0]
[0, 1126, 1, 2, 0, 2, 2, 1, 1, 0]
[5, 2, 995, 7, 3, 0, 4, 4, 9, 3]
[1, 0, 2, 990, 0, 6, 0, 3, 5, 3]
[1, 0, 3, 0, 961, 0, 3, 0, 1, 13]
[3, 0, 0, 9, 1, 862, 6, 1, 5, 5]
[6, 3, 0, 1, 2, 5, 937, 0, 4, 0]
[2, 3, 9, 1, 3, 0, 0, 996, 2, 12]
[5, 2, 2, 2, 4, 4, 3, 3, 946, 3]
[5, 5, 0, 6, 9, 1, 0, 4, 2, 977]
Epoch: 22
Type: Training Data
0.992866666667 correct
Epoch: 22
Type: Test Data
0.9764 correct
[974, 1, 1, 0, 0, 0, 1, 1, 2, 0]
[0, 1126, 1, 2, 0, 2, 2, 1, 1, 0]
[5, 2, 995, 7, 3, 0, 4, 4, 9, 3]
[1, 0, 3, 990, 0, 6, 0, 2, 5, 3]
[1, 0, 3, 0, 960, 0, 3, 0, 1, 14]
[3, 0, 0, 10, 1, 861, 6, 1, 5, 5]
[5, 3, 0, 1, 2, 5, 938, 0, 4, 0]
[2, 3, 9, 1, 3, 0, 0, 996, 2, 12]
[5, 2, 2, 2, 4, 4, 3, 3, 946, 3]
[5, 5, 0, 6, 8, 1, 0, 4, 2, 978]
Epoch: 23
Type: Training Data
0.993083333333 correct
Epoch: 23
Type: Test Data
0.9764 correct
[974, 1, 1, 0, 0, 0, 1, 1, 2, 0]
[0, 1126, 1, 2, 0, 2, 2, 1, 1, 0]
[5, 2, 996, 6, 3, 0, 4, 4, 9, 3]
[1, 0, 2, 989, 1, 6, 0, 2, 5, 4]
[1, 0, 3, 0, 961, 0, 3, 0, 1, 13]
[3, 0, 0, 11, 1, 860, 6, 1, 5, 5]
[5, 3, 0, 1, 2, 5, 938, 0, 4, 0]
[3, 3, 9, 1, 3, 0, 0, 996, 2, 11]
[5, 2, 2, 2, 4, 4, 3, 3, 946, 3]
[5, 5, 0, 6, 8, 1, 0, 4, 2, 978]
Epoch: 24
Type: Training Data
0.993166666667 correct
Epoch: 24
Type: Test Data
0.9762 correct
[974, 1, 1, 0, 0, 0, 1, 1, 2, 0]
[0, 1126, 1, 2, 0, 2, 2, 1, 1, 0]
[5, 2, 996, 5, 3, 0, 4, 4, 10, 3]
[1, 0, 2, 989, 1, 6, 0, 2, 5, 4]
[1, 0, 3, 0, 961, 0, 3, 0, 1, 13]
[3, 0, 0, 12, 1, 859, 6, 1, 5, 5]
[5, 3, 0, 1, 2, 5, 938, 0, 4, 0]
[3, 3, 9, 1, 3, 0, 0, 996, 2, 11]
[5, 2, 3, 2, 4, 5, 2, 3, 945, 3]
[5, 5, 0, 6, 8, 1, 0, 4, 2, 978]
Epoch: 25
Type: Training Data
0.993383333333 correct
Epoch: 25
Type: Test Data
0.9761 correct
[974, 1, 1, 0, 0, 0, 1, 1, 2, 0]
[0, 1125, 1, 3, 0, 2, 2, 1, 1, 0]
[5, 2, 995, 5, 3, 0, 4, 5, 10, 3]
[1, 0, 2, 989, 1, 7, 0, 2, 6, 2]
[1, 0, 3, 0, 961, 0, 3, 0, 1, 13]
[3, 0, 0, 12, 1, 859, 6, 1, 5, 5]
[5, 3, 0, 1, 2, 5, 938, 0, 4, 0]
[3, 3, 9, 1, 3, 0, 0, 996, 2, 11]
[5, 1, 3, 2, 4, 5, 2, 3, 946, 3]
[5, 5, 0, 6, 8, 1, 0, 4, 2, 978]
Epoch: 26
Type: Training Data
0.9936 correct
Epoch: 26
Type: Test Data
0.9761 correct
[974, 1, 1, 0, 0, 0, 1, 1, 2, 0]
[0, 1126, 1, 3, 0, 2, 2, 0, 1, 0]
[5, 2, 995, 5, 3, 0, 4, 5, 10, 3]
[1, 0, 2, 989, 1, 7, 0, 2, 6, 2]
[1, 0, 3, 0, 961, 0, 3, 0, 1, 13]
[3, 0, 0, 12, 1, 859, 6, 1, 5, 5]
[5, 3, 0, 1, 2, 6, 937, 0, 4, 0]
[3, 3, 9, 1, 3, 0, 0, 996, 2, 11]
[5, 1, 3, 2, 4, 5, 2, 3, 946, 3]
[5, 5, 0, 6, 8, 1, 0, 4, 2, 978]
Epoch: 27
Type: Training Data
0.993833333333 correct
Epoch: 27
Type: Test Data
0.9765 correct
[974, 1, 1, 0, 0, 0, 1, 1, 2, 0]
[0, 1126, 1, 3, 0, 2, 2, 0, 1, 0]
[5, 2, 995, 5, 3, 0, 4, 5, 10, 3]
[1, 0, 2, 989, 1, 7, 0, 2, 6, 2]
[1, 0, 3, 0, 962, 0, 3, 0, 1, 12]
[3, 0, 0, 12, 1, 861, 4, 1, 5, 5]
[5, 3, 0, 1, 2, 6, 937, 0, 4, 0]
[3, 3, 9, 1, 3, 0, 0, 996, 2, 11]
[5, 1, 3, 1, 4, 5, 2, 3, 947, 3]
[5, 5, 0, 6, 8, 1, 0, 4, 2, 978]
Epoch: 28
Type: Training Data
0.993933333333 correct
Epoch: 28
Type: Test Data
0.9763 correct
[974, 1, 1, 0, 0, 0, 1, 1, 2, 0]
[0, 1126, 1, 3, 0, 2, 2, 0, 1, 0]
[5, 2, 995, 5, 3, 0, 4, 5, 10, 3]
[1, 0, 2, 989, 1, 7, 0, 2, 6, 2]
[1, 0, 3, 0, 962, 0, 3, 0, 1, 12]
[3, 0, 0, 12, 1, 861, 4, 1, 5, 5]
[5, 3, 0, 1, 2, 6, 937, 0, 4, 0]
[3, 4, 9, 1, 3, 0, 0, 995, 2, 11]
[5, 1, 3, 1, 4, 5, 2, 3, 947, 3]
[5, 5, 0, 6, 9, 1, 0, 4, 2, 977]
Epoch: 29
Type: Training Data
0.99425 correct
Epoch: 29
Type: Test Data
0.9763 correct
[974, 1, 1, 0, 0, 0, 1, 1, 2, 0]
[0, 1126, 1, 3, 0, 2, 2, 0, 1, 0]
[5, 2, 995, 5, 3, 0, 4, 5, 10, 3]
[1, 0, 3, 988, 1, 7, 0, 2, 6, 2]
[1, 0, 3, 0, 962, 0, 3, 0, 1, 12]
[3, 0, 0, 12, 1, 861, 3, 1, 6, 5]
[5, 3, 0, 1, 2, 6, 937, 0, 4, 0]
[3, 4, 9, 1, 2, 0, 0, 996, 2, 11]
[5, 1, 3, 1, 4, 5, 2, 3, 947, 3]
[4, 5, 0, 7, 9, 1, 0, 4, 2, 977]
Epoch: 30
Type: Training Data
0.994416666667 correct
Epoch: 30
Type: Test Data
0.9762 correct
[974, 1, 1, 0, 0, 0, 1, 1, 2, 0]
[0, 1126, 1, 3, 0, 2, 2, 0, 1, 0]
[5, 2, 994, 6, 3, 0, 4, 5, 10, 3]
[1, 0, 3, 987, 1, 8, 0, 2, 6, 2]
[1, 0, 3, 0, 962, 0, 3, 0, 1, 12]
[3, 0, 0, 12, 1, 861, 3, 1, 6, 5]
[5, 3, 0, 1, 2, 6, 937, 0, 4, 0]
[3, 4, 9, 1, 2, 0, 0, 996, 2, 11]
[5, 1, 3, 1, 4, 5, 2, 3, 947, 3]
[4, 5, 0, 7, 9, 0, 0, 4, 2, 978]
Epoch: 31
Type: Training Data
0.994566666667 correct
Epoch: 31
Type: Test Data
0.9765 correct
[974, 1, 1, 0, 0, 0, 1, 1, 2, 0]
[0, 1126, 1, 3, 0, 2, 2, 0, 1, 0]
[5, 2, 994, 6, 3, 0, 4, 5, 10, 3]
[1, 0, 3, 987, 1, 8, 0, 2, 6, 2]
[1, 0, 2, 0, 963, 0, 3, 0, 1, 12]
[3, 0, 0, 12, 1, 861, 3, 1, 6, 5]
[5, 3, 0, 1, 2, 6, 937, 0, 4, 0]
[3, 4, 9, 1, 2, 0, 0, 996, 2, 11]
[5, 1, 3, 1, 3, 4, 3, 3, 948, 3]
[4, 5, 0, 7, 9, 0, 0, 3, 2, 979]
Epoch: 32
Type: Training Data
0.994683333333 correct
Epoch: 32
Type: Test Data
0.9765 correct
[974, 1, 1, 0, 0, 0, 1, 1, 2, 0]
[0, 1126, 1, 3, 0, 2, 2, 0, 1, 0]
[5, 2, 994, 6, 3, 0, 4, 5, 10, 3]
[1, 0, 3, 987, 1, 8, 0, 2, 6, 2]
[1, 0, 2, 0, 963, 0, 3, 0, 1, 12]
[3, 0, 0, 12, 1, 861, 3, 1, 6, 5]
[4, 3, 0, 1, 2, 6, 938, 0, 4, 0]
[3, 4, 9, 1, 2, 0, 0, 996, 2, 11]
[5, 1, 3, 1, 3, 4, 4, 3, 947, 3]
[4, 5, 0, 7, 9, 0, 0, 3, 2, 979]
Epoch: 33
Type: Training Data
0.994883333333 correct
Epoch: 33
Type: Test Data
0.9765 correct
[974, 1, 1, 0, 0, 0, 1, 1, 2, 0]
[0, 1126, 1, 3, 0, 2, 2, 0, 1, 0]
[5, 2, 995, 6, 3, 0, 4, 5, 9, 3]
[1, 0, 4, 987, 0, 8, 0, 2, 6, 2]
[1, 0, 2, 0, 962, 0, 3, 0, 1, 13]
[3, 0, 0, 12, 1, 861, 3, 1, 6, 5]
[4, 3, 0, 1, 2, 6, 938, 0, 4, 0]
[3, 4, 10, 1, 2, 0, 0, 995, 3, 10]
[5, 1, 3, 1, 3, 4, 4, 3, 948, 2]
[4, 5, 0, 7, 9, 0, 0, 3, 2, 979]
Epoch: 34
Type: Training Data
0.995 correct
Epoch: 34
Type: Test Data
0.9764 correct
[974, 1, 1, 0, 0, 0, 1, 1, 2, 0]
[0, 1126, 1, 3, 0, 2, 2, 0, 1, 0]
[5, 2, 997, 6, 3, 0, 2, 5, 9, 3]
[1, 0, 4, 987, 0, 8, 0, 2, 6, 2]
[1, 0, 2, 0, 961, 0, 3, 0, 1, 14]
[3, 0, 0, 12, 1, 861, 3, 1, 6, 5]
[4, 3, 1, 1, 2, 6, 937, 0, 4, 0]
[3, 4, 11, 1, 2, 0, 0, 994, 3, 10]
[5, 1, 3, 1, 3, 4, 4, 3, 948, 2]
[4, 5, 0, 7, 9, 0, 0, 3, 2, 979]
Epoch: 35
Type: Training Data
0.995083333333 correct
Epoch: 35
Type: Test Data
0.9763 correct
[974, 1, 1, 0, 0, 0, 1, 1, 2, 0]
[0, 1126, 1, 3, 0, 2, 2, 0, 1, 0]
[5, 2, 996, 6, 3, 0, 2, 6, 9, 3]
[1, 0, 3, 987, 0, 8, 0, 3, 6, 2]
[1, 0, 2, 0, 961, 0, 3, 0, 1, 14]
[3, 0, 0, 12, 1, 861, 3, 1, 6, 5]
[4, 3, 1, 1, 2, 6, 936, 0, 5, 0]
[2, 4, 11, 1, 2, 0, 0, 995, 3, 10]
[5, 1, 3, 1, 3, 4, 4, 3, 948, 2]
[3, 5, 0, 7, 10, 0, 0, 3, 2, 979]
Epoch: 36
Type: Training Data
0.995233333333 correct
Epoch: 36
Type: Test Data
0.9761 correct
[974, 1, 1, 0, 0, 0, 1, 1, 2, 0]
[0, 1125, 1, 3, 0, 2, 2, 0, 2, 0]
[5, 2, 996, 6, 3, 0, 2, 6, 9, 3]
[1, 0, 3, 987, 0, 8, 0, 3, 6, 2]
[1, 0, 2, 0, 961, 0, 3, 0, 1, 14]
[3, 0, 0, 12, 1, 861, 3, 1, 6, 5]
[4, 3, 1, 1, 2, 6, 936, 0, 5, 0]
[2, 4, 11, 1, 2, 0, 0, 995, 3, 10]
[5, 1, 3, 1, 3, 5, 4, 3, 947, 2]
[3, 5, 0, 7, 10, 0, 0, 3, 2, 979]
Epoch: 37
Type: Training Data
0.995333333333 correct
Epoch: 37
Type: Test Data
0.9761 correct
[974, 1, 1, 0, 0, 0, 1, 1, 2, 0]
[0, 1125, 1, 3, 0, 2, 2, 0, 2, 0]
[5, 2, 996, 6, 3, 0, 2, 7, 8, 3]
[1, 0, 3, 987, 0, 8, 0, 3, 6, 2]
[1, 0, 2, 0, 961, 0, 3, 0, 1, 14]
[3, 0, 0, 12, 1, 860, 4, 1, 6, 5]
[3, 3, 1, 1, 2, 6, 937, 0, 5, 0]
[2, 4, 11, 1, 2, 0, 0, 995, 3, 10]
[5, 1, 3, 1, 3, 5, 4, 3, 947, 2]
[3, 5, 0, 7, 10, 0, 0, 3, 2, 979]
Epoch: 38
Type: Training Data
0.995433333333 correct
Epoch: 38
Type: Test Data
0.9761 correct
[974, 1, 1, 0, 0, 0, 1, 1, 2, 0]
[0, 1125, 1, 3, 0, 2, 2, 0, 2, 0]
[5, 2, 997, 6, 2, 0, 2, 7, 8, 3]
[1, 0, 3, 987, 0, 8, 0, 3, 6, 2]
[1, 0, 2, 0, 961, 0, 3, 0, 1, 14]
[3, 0, 0, 12, 1, 860, 4, 1, 6, 5]
[3, 3, 1, 1, 2, 6, 937, 0, 5, 0]
[2, 4, 11, 1, 2, 0, 0, 995, 2, 11]
[5, 1, 3, 1, 3, 6, 4, 3, 946, 2]
[3, 5, 0, 7, 10, 0, 0, 3, 2, 979]
Epoch: 39
Type: Training Data
0.99555 correct
Epoch: 39
Type: Test Data
0.9761 correct
[974, 1, 1, 0, 0, 0, 1, 1, 2, 0]
[0, 1125, 1, 3, 0, 2, 2, 0, 2, 0]
[5, 2, 997, 6, 2, 0, 2, 7, 8, 3]
[1, 0, 3, 987, 0, 8, 0, 3, 6, 2]
[1, 0, 2, 0, 961, 0, 3, 0, 1, 14]
[3, 0, 0, 12, 1, 860, 4, 1, 6, 5]
[3, 3, 1, 1, 2, 6, 937, 0, 5, 0]
[2, 4, 11, 1, 2, 0, 0, 995, 2, 11]
[5, 1, 3, 1, 3, 6, 4, 3, 946, 2]
[3, 5, 0, 7, 10, 0, 0, 3, 2, 979]
Epoch: 40
Type: Training Data
0.995616666667 correct
Epoch: 40
Type: Test Data
0.9762 correct
[974, 1, 1, 0, 0, 0, 1, 1, 2, 0]
[0, 1125, 1, 3, 0, 2, 2, 0, 2, 0]
[5, 2, 997, 6, 2, 0, 2, 7, 8, 3]
[1, 0, 3, 987, 0, 8, 0, 3, 6, 2]
[1, 0, 2, 0, 962, 0, 3, 0, 1, 13]
[3, 0, 0, 12, 1, 860, 4, 1, 6, 5]
[3, 3, 1, 1, 2, 6, 937, 0, 5, 0]
[2, 4, 11, 1, 2, 0, 0, 995, 2, 11]
[5, 1, 3, 1, 3, 6, 4, 3, 946, 2]
[3, 5, 0, 7, 10, 0, 0, 3, 2, 979]
Epoch: 41
Type: Training Data
0.995766666667 correct
Epoch: 41
Type: Test Data
0.9763 correct
[974, 1, 1, 0, 0, 0, 1, 1, 2, 0]
[0, 1125, 1, 3, 0, 2, 2, 0, 2, 0]
[5, 2, 997, 6, 2, 0, 2, 7, 8, 3]
[1, 0, 4, 987, 0, 8, 0, 3, 6, 1]
[1, 0, 1, 0, 962, 0, 3, 0, 2, 13]
[3, 0, 0, 12, 1, 860, 4, 1, 6, 5]
[3, 3, 1, 1, 2, 6, 937, 0, 5, 0]
[2, 4, 11, 1, 2, 0, 0, 995, 2, 11]
[5, 1, 3, 1, 3, 6, 3, 3, 947, 2]
[3, 5, 0, 7, 10, 0, 0, 3, 2, 979]
Epoch: 42
Type: Training Data
0.995883333333 correct
Epoch: 42
Type: Test Data
0.9761 correct
[974, 1, 1, 0, 0, 0, 1, 1, 2, 0]
[0, 1125, 1, 3, 0, 2, 1, 0, 3, 0]
[5, 1, 997, 6, 3, 0, 2, 7, 8, 3]
[1, 0, 4, 987, 0, 8, 0, 3, 6, 1]
[1, 0, 1, 0, 962, 0, 3, 0, 2, 13]
[3, 0, 0, 12, 1, 859, 4, 1, 7, 5]
[3, 3, 1, 1, 2, 6, 937, 0, 5, 0]
[1, 4, 11, 1, 2, 0, 0, 995, 2, 12]
[5, 1, 3, 1, 3, 6, 4, 3, 946, 2]
[3, 5, 0, 7, 10, 0, 0, 3, 2, 979]
Epoch: 43
Type: Training Data
0.99595 correct
Epoch: 43
Type: Test Data
0.9762 correct
[974, 1, 1, 0, 0, 0, 1, 1, 2, 0]
[0, 1125, 1, 3, 0, 2, 1, 0, 3, 0]
[4, 1, 998, 6, 3, 0, 2, 7, 8, 3]
[0, 0, 5, 988, 0, 8, 0, 3, 5, 1]
[1, 0, 1, 0, 962, 0, 3, 0, 2, 13]
[3, 0, 0, 12, 1, 859, 4, 1, 7, 5]
[3, 3, 1, 1, 2, 6, 937, 0, 5, 0]
[1, 4, 11, 1, 2, 0, 0, 995, 2, 12]
[5, 1, 3, 1, 3, 6, 4, 3, 946, 2]
[3, 5, 0, 7, 10, 0, 0, 4, 2, 978]
Epoch: 44
Type: Training Data
0.996083333333 correct
Epoch: 44
Type: Test Data
0.9759 correct
[974, 1, 1, 0, 0, 0, 1, 1, 2, 0]
[0, 1125, 1, 3, 0, 2, 1, 0, 3, 0]
[4, 1, 998, 6, 3, 0, 2, 7, 8, 3]
[0, 0, 5, 988, 0, 8, 0, 3, 5, 1]
[1, 0, 1, 0, 962, 0, 3, 0, 2, 13]
[3, 0, 0, 12, 1, 858, 4, 1, 7, 6]
[3, 3, 1, 1, 2, 6, 937, 0, 5, 0]
[1, 4, 11, 1, 3, 0, 0, 994, 2, 12]
[5, 1, 3, 1, 3, 6, 4, 3, 946, 2]
[4, 5, 0, 7, 10, 0, 0, 4, 2, 977]
Epoch: 45
Type: Training Data
0.996233333333 correct
Epoch: 45
Type: Test Data
0.9759 correct
[974, 1, 1, 0, 0, 0, 1, 1, 2, 0]
[0, 1125, 1, 3, 0, 2, 1, 0, 3, 0]
[4, 1, 998, 6, 3, 0, 2, 7, 8, 3]
[0, 0, 5, 988, 0, 8, 0, 3, 5, 1]
[1, 0, 1, 0, 961, 0, 3, 0, 2, 14]
[3, 0, 0, 12, 1, 858, 4, 1, 7, 6]
[2, 3, 1, 1, 2, 7, 937, 0, 5, 0]
[1, 4, 11, 1, 3, 0, 0, 995, 2, 11]
[5, 1, 3, 1, 3, 6, 4, 3, 946, 2]
[4, 5, 0, 7, 10, 0, 0, 4, 2, 977]
Epoch: 46
Type: Training Data
0.996366666667 correct
Epoch: 46
Type: Test Data
0.9757 correct
[974, 1, 1, 0, 0, 0, 1, 1, 2, 0]
[0, 1125, 1, 3, 0, 2, 1, 0, 3, 0]
[4, 1, 998, 6, 3, 0, 2, 7, 8, 3]
[0, 0, 5, 988, 0, 8, 0, 3, 5, 1]
[1, 0, 1, 0, 961, 0, 3, 0, 2, 14]
[3, 0, 0, 12, 1, 857, 4, 1, 7, 7]
[2, 3, 1, 1, 2, 7, 937, 0, 5, 0]
[1, 4, 11, 1, 3, 0, 0, 994, 3, 11]
[5, 1, 3, 1, 3, 7, 4, 3, 945, 2]
[4, 5, 0, 6, 10, 0, 0, 4, 2, 978]
Epoch: 47
Type: Training Data
0.99655 correct
Epoch: 47
Type: Test Data
0.9755 correct
[974, 1, 1, 0, 0, 0, 1, 1, 2, 0]
[0, 1124, 2, 3, 0, 2, 1, 0, 3, 0]
[4, 1, 998, 6, 3, 0, 2, 7, 8, 3]
[0, 0, 5, 988, 0, 8, 0, 3, 5, 1]
[1, 0, 1, 0, 961, 0, 3, 0, 2, 14]
[3, 0, 0, 12, 1, 856, 4, 1, 8, 7]
[2, 3, 1, 1, 2, 7, 937, 0, 5, 0]
[1, 4, 11, 1, 4, 0, 0, 993, 3, 11]
[5, 1, 3, 1, 3, 7, 3, 3, 946, 2]
[4, 5, 0, 6, 10, 0, 0, 4, 2, 978]
Epoch: 48
Type: Training Data
0.996633333333 correct
Epoch: 48
Type: Test Data
0.9753 correct
[974, 1, 1, 0, 0, 0, 1, 1, 2, 0]
[0, 1124, 2, 3, 0, 2, 1, 0, 3, 0]
[4, 1, 998, 6, 3, 0, 2, 7, 8, 3]
[0, 0, 5, 988, 0, 8, 0, 3, 5, 1]
[1, 0, 1, 0, 960, 0, 3, 0, 2, 15]
[3, 0, 0, 12, 1, 855, 5, 1, 8, 7]
[2, 3, 1, 1, 2, 7, 937, 0, 5, 0]
[1, 4, 11, 1, 4, 0, 0, 993, 3, 11]
[5, 1, 3, 1, 3, 7, 3, 3, 946, 2]
[4, 5, 0, 6, 10, 0, 0, 4, 2, 978]
Epoch: 49
Type: Training Data
0.99665 correct
Epoch: 49
Type: Test Data
0.9752 correct
[974, 1, 1, 0, 0, 0, 1, 1, 2, 0]
[0, 1124, 2, 3, 0, 2, 1, 0, 3, 0]
[4, 1, 998, 6, 3, 0, 2, 7, 8, 3]
[0, 0, 5, 988, 0, 8, 0, 3, 5, 1]
[1, 0, 1, 0, 960, 0, 3, 0, 2, 15]
[3, 0, 0, 11, 1, 855, 5, 2, 8, 7]
[2, 3, 1, 1, 2, 7, 937, 0, 5, 0]
[1, 4, 12, 1, 4, 0, 0, 992, 3, 11]
[5, 1, 3, 1, 3, 7, 3, 3, 946, 2]
[4, 5, 0, 6, 10, 0, 0, 4, 2, 978]
0.0987166666667
0.94715
0.96625
0.97395
0.978016666667
0.98065
0.98235
0.983816666667
0.984833333333
0.985783333333
0.98695
0.987866666667
0.988583333333
0.989116666667
0.98975
0.990316666667
0.990733333333
0.9913
0.9918
0.99215
0.992383333333
0.992683333333
0.992866666667
0.993083333333
0.993166666667
0.993383333333
0.9936
0.993833333333
0.993933333333
0.99425
0.994416666667
0.994566666667
0.994683333333
0.994883333333
0.995
0.995083333333
0.995233333333
0.995333333333
0.995433333333
0.99555
0.995616666667
0.995766666667
0.995883333333
0.99595
0.996083333333
0.996233333333
0.996366666667
0.99655
0.996633333333
0.99665

0.098
0.946
0.9637
0.9687
0.9719
0.9727
0.9736
0.975
0.9754
0.9764
0.9765
0.9766
0.9765
0.9765
0.9762
0.9758
0.9764
0.9768
0.9769
0.9766
0.9764
0.9764
0.9764
0.9764
0.9762
0.9761
0.9761
0.9765
0.9763
0.9763
0.9762
0.9765
0.9765
0.9765
0.9764
0.9763
0.9761
0.9761
0.9761
0.9761
0.9762
0.9763
0.9761
0.9762
0.9759
0.9759
0.9757
0.9755
0.9753
0.9752
